[gd_resource type="Resource" script_class="DialogueResource" load_steps=2 format=3]

[ext_resource type="Script" path="res://addons/dialogue_manager/dialogue_resource.gd" id="1_yakwn"]

[resource]
script = ExtResource("1_yakwn")
using_states = PackedStringArray()
titles = {
"start": "2"
}
character_names = PackedStringArray("Jules")
first_title = "2"
lines = {
"1": {
"id": "1",
"next_id": "2",
"text": "start",
"type": "title"
},
"2": {
"id": "2",
"mutation": {
"expression": Array[Dictionary]([{
"type": "variable",
"value": "VarPrinci"
}, {
"type": "dot"
}, {
"function": "update_talking",
"type": "function",
"value": Array[Array]([Array[Dictionary]([{
"type": "variable",
"value": "true"
}])])
}])
},
"next_id": "3",
"type": "mutation"
},
"3": {
"id": "3",
"mutation": {
"expression": Array[Dictionary]([{
"type": "variable",
"value": "Data"
}, {
"type": "dot"
}, {
"function": "set_end_dialog",
"type": "function",
"value": Array[Array]([Array[Dictionary]([{
"type": "variable",
"value": "true"
}])])
}])
},
"next_id": "4",
"type": "mutation"
},
"4": {
"character": "Jules",
"character_replacements": Array[Dictionary]([]),
"id": "4",
"next_id": "5",
"tags": PackedStringArray(),
"text": "*chuchote à l'adversaire* c'est toujours les mêmes religions qui font cela...",
"text_replacements": Array[Dictionary]([]),
"translation_key": "*chuchote à l'adversaire* c'est toujours les mêmes religions qui font cela...",
"type": "dialogue"
},
"5": {
"id": "5",
"mutation": {
"expression": Array[Dictionary]([{
"type": "variable",
"value": "VarPrinci"
}, {
"type": "dot"
}, {
"function": "update_talking",
"type": "function",
"value": Array[Array]([Array[Dictionary]([{
"type": "variable",
"value": "false"
}])])
}])
},
"next_id": "6",
"type": "mutation"
},
"6": {
"id": "6",
"is_snippet": false,
"next_id": "end",
"type": "goto"
}
}
metadata/dialogue_manager_version = "2.29.2"
