[gd_resource type="Resource" script_class="DialogueResource" load_steps=2 format=3]

[ext_resource type="Script" path="res://addons/dialogue_manager/dialogue_resource.gd" id="1_oei2n"]

[resource]
script = ExtResource("1_oei2n")
using_states = PackedStringArray()
titles = {
"start": "2"
}
character_names = PackedStringArray("Marcel")
first_title = "2"
lines = {
"1": {
"id": "1",
"next_id": "2",
"text": "start",
"type": "title"
},
"10": {
"character": "Marcel",
"character_replacements": Array[Dictionary]([]),
"id": "10",
"next_id": "11",
"parent_id": "9",
"tags": PackedStringArray(),
"text": "Mike est vraiment quelqu'un d'ambitieux. Voici ce que je sais :",
"text_replacements": Array[Dictionary]([]),
"translation_key": "Mike est vraiment quelqu'un d'ambitieux. Voici ce que je sais :",
"type": "dialogue"
},
"11": {
"id": "11",
"mutation": {
"expression": Array[Dictionary]([{
"type": "variable",
"value": "VarPrinci"
}, {
"type": "dot"
}, {
"function": "do_entry",
"type": "function",
"value": Array[Array]([])
}])
},
"next_id": "12",
"parent_id": "9",
"type": "mutation"
},
"12": {
"id": "12",
"mutation": {
"expression": Array[Dictionary]([{
"type": "variable",
"value": "VarPrinci"
}, {
"type": "dot"
}, {
"function": "update_talking",
"type": "function",
"value": Array[Array]([Array[Dictionary]([{
"type": "variable",
"value": "false"
}])])
}])
},
"next_id": "13",
"parent_id": "9",
"type": "mutation"
},
"13": {
"id": "13",
"is_snippet": false,
"next_id": "end",
"parent_id": "9",
"type": "goto"
},
"2": {
"id": "2",
"mutation": {
"expression": Array[Dictionary]([{
"type": "variable",
"value": "VarPrinci"
}, {
"type": "dot"
}, {
"function": "update_talking",
"type": "function",
"value": Array[Array]([Array[Dictionary]([{
"type": "variable",
"value": "true"
}])])
}])
},
"next_id": "3",
"type": "mutation"
},
"3": {
"id": "3",
"mutation": {
"expression": Array[Dictionary]([{
"type": "variable",
"value": "Data"
}, {
"type": "dot"
}, {
"function": "set_end_dialog",
"type": "function",
"value": Array[Array]([Array[Dictionary]([{
"type": "variable",
"value": "false"
}])])
}])
},
"next_id": "4",
"type": "mutation"
},
"4": {
"condition": {
"expression": Array[Dictionary]([{
"type": "variable",
"value": "Data"
}, {
"type": "dot"
}, {
"type": "variable",
"value": "selectedScenarioCase"
}, {
"type": "comparison",
"value": "=="
}, {
"type": "string",
"value": "s2_c2"
}])
},
"id": "4",
"next_conditional_id": "9",
"next_id": "5",
"next_id_after": "end!",
"type": "condition"
},
"5": {
"character": "Marcel",
"character_replacements": Array[Dictionary]([]),
"id": "5",
"next_id": "6",
"parent_id": "4",
"tags": PackedStringArray(),
"text": "Sophie est quelqu'un de très loyale. Voici ce que je sais :",
"text_replacements": Array[Dictionary]([]),
"translation_key": "Sophie est quelqu'un de très loyale. Voici ce que je sais :",
"type": "dialogue"
},
"6": {
"id": "6",
"mutation": {
"expression": Array[Dictionary]([{
"type": "variable",
"value": "VarPrinci"
}, {
"type": "dot"
}, {
"function": "do_entry",
"type": "function",
"value": Array[Array]([])
}])
},
"next_id": "7",
"parent_id": "4",
"type": "mutation"
},
"7": {
"id": "7",
"mutation": {
"expression": Array[Dictionary]([{
"type": "variable",
"value": "VarPrinci"
}, {
"type": "dot"
}, {
"function": "update_talking",
"type": "function",
"value": Array[Array]([Array[Dictionary]([{
"type": "variable",
"value": "false"
}])])
}])
},
"next_id": "8",
"parent_id": "4",
"type": "mutation"
},
"8": {
"id": "8",
"is_snippet": false,
"next_id": "end",
"parent_id": "4",
"type": "goto"
},
"9": {
"condition": {
"expression": Array[Dictionary]([{
"type": "variable",
"value": "Data"
}, {
"type": "dot"
}, {
"type": "variable",
"value": "selectedScenarioCase"
}, {
"type": "comparison",
"value": "=="
}, {
"type": "string",
"value": "s2_c1"
}])
},
"id": "9",
"next_conditional_id": "end!",
"next_id": "10",
"next_id_after": "end!",
"type": "condition"
}
}
metadata/dialogue_manager_version = "2.29.2"
