[gd_resource type="Resource" script_class="DialogueResource" load_steps=2 format=3]

[ext_resource type="Script" path="res://addons/dialogue_manager/dialogue_resource.gd" id="1_iup8s"]

[resource]
script = ExtResource("1_iup8s")
using_states = PackedStringArray()
titles = {}
character_names = PackedStringArray()
first_title = ""
lines = {}
metadata/dialogue_manager_version = "2.29.2"
