[gd_resource type="Resource" script_class="DialogueResource" load_steps=2 format=3]

[ext_resource type="Script" path="res://addons/dialogue_manager/dialogue_resource.gd" id="1_kcrqe"]

[resource]
script = ExtResource("1_kcrqe")
using_states = PackedStringArray()
titles = {
"start": "2"
}
character_names = PackedStringArray("Superviseur")
first_title = "2"
lines = {
"1": {
"id": "1",
"next_id": "2",
"text": "start",
"type": "title"
},
"10": {
"character": "Superviseur",
"character_replacements": Array[Dictionary]([]),
"id": "10",
"next_id": "11",
"parent_id": "7",
"tags": PackedStringArray(),
"text": "Je compte sur toi.",
"text_replacements": Array[Dictionary]([]),
"translation_key": "Je compte sur toi.",
"type": "dialogue"
},
"100": {
"id": "100",
"mutation": {
"expression": Array[Dictionary]([{
"type": "variable",
"value": "Data"
}, {
"type": "dot"
}, {
"function": "set_has_talked_supervisor",
"type": "function",
"value": Array[Array]([Array[Dictionary]([{
"type": "variable",
"value": "false"
}])])
}])
},
"next_id": "101",
"parent_id": "95",
"type": "mutation"
},
"101": {
"id": "101",
"is_snippet": false,
"next_id": "end",
"parent_id": "95",
"type": "goto"
},
"102": {
"id": "102",
"next_id": "103",
"next_id_after": "103",
"parent_id": "15",
"tags": PackedStringArray(),
"text": "Laisse moi le temps de réfléchir encore...",
"text_replacements": Array[Dictionary]([]),
"translation_key": "Laisse moi le temps de réfléchir encore...",
"type": "response"
},
"103": {
"id": "103",
"mutation": {
"expression": Array[Dictionary]([{
"type": "variable",
"value": "VarPrinci"
}, {
"type": "dot"
}, {
"function": "update_talking",
"type": "function",
"value": Array[Array]([Array[Dictionary]([{
"type": "variable",
"value": "false"
}])])
}])
},
"next_id": "104",
"parent_id": "15",
"type": "mutation"
},
"104": {
"id": "104",
"is_snippet": false,
"next_id": "end",
"parent_id": "15",
"type": "goto"
},
"105": {
"condition": {
"expression": Array[Dictionary]([{
"type": "variable",
"value": "VarPrinci"
}, {
"type": "dot"
}, {
"type": "variable",
"value": "count"
}, {
"type": "comparison",
"value": "=="
}, {
"type": "number",
"value": 2
}])
},
"id": "105",
"next_conditional_id": "134",
"next_id": "106",
"next_id_after": "end!",
"parent_id": "2",
"type": "condition"
},
"106": {
"condition": {
"expression": Array[Dictionary]([{
"type": "variable",
"value": "Data"
}, {
"type": "dot"
}, {
"type": "variable",
"value": "notes"
}, {
"type": "comparison",
"value": "=="
}, {
"type": "number",
"value": 18
}])
},
"id": "106",
"next_conditional_id": "113",
"next_id": "107",
"next_id_after": "end!",
"parent_id": "105",
"type": "condition"
},
"107": {
"character": "Superviseur",
"character_replacements": Array[Dictionary]([]),
"id": "107",
"next_id": "108",
"parent_id": "106",
"tags": PackedStringArray(),
"text": "Tu as très bien compris le scénario, et tu as su quoi faire, félicitation!",
"text_replacements": Array[Dictionary]([]),
"translation_key": "Tu as très bien compris le scénario, et tu as su quoi faire, félicitation!",
"type": "dialogue"
},
"108": {
"id": "108",
"mutation": {
"expression": Array[Dictionary]([{
"type": "variable",
"value": "VarPrinci"
}, {
"type": "dot"
}, {
"function": "do_notes",
"type": "function",
"value": Array[Array]([])
}])
},
"next_id": "109",
"parent_id": "106",
"type": "mutation"
},
"109": {
"id": "109",
"mutation": {
"expression": Array[Dictionary]([{
"type": "variable",
"value": "Data"
}, {
"type": "dot"
}, {
"function": "set_complete_fiche_end",
"type": "function",
"value": Array[Array]([Array[Dictionary]([{
"type": "string",
"value": "stade"
}])])
}])
},
"next_id": "110",
"parent_id": "106",
"type": "mutation"
},
"11": {
"id": "11",
"mutation": {
"expression": Array[Dictionary]([{
"type": "variable",
"value": "VarPrinci"
}, {
"type": "dot"
}, {
"function": "update_talking",
"type": "function",
"value": Array[Array]([Array[Dictionary]([{
"type": "variable",
"value": "false"
}])])
}])
},
"next_id": "12",
"parent_id": "5",
"type": "mutation"
},
"110": {
"id": "110",
"mutation": {
"expression": Array[Dictionary]([{
"type": "variable",
"value": "VarPrinci"
}, {
"type": "dot"
}, {
"function": "update_talking",
"type": "function",
"value": Array[Array]([Array[Dictionary]([{
"type": "variable",
"value": "false"
}])])
}])
},
"next_id": "111",
"parent_id": "106",
"type": "mutation"
},
"111": {
"id": "111",
"mutation": {
"expression": Array[Dictionary]([{
"type": "variable",
"value": "Data"
}, {
"type": "dot"
}, {
"function": "set_has_talked_supervisor",
"type": "function",
"value": Array[Array]([Array[Dictionary]([{
"type": "variable",
"value": "false"
}])])
}])
},
"next_id": "112",
"parent_id": "106",
"type": "mutation"
},
"112": {
"id": "112",
"mutation": {
"expression": Array[Dictionary]([{
"type": "variable",
"value": "VarPrinci"
}, {
"type": "dot"
}, {
"function": "set_update_count_talk",
"type": "function",
"value": Array[Array]([Array[Dictionary]([{
"type": "number",
"value": 3
}])])
}])
},
"next_id": "end!",
"parent_id": "106",
"type": "mutation"
},
"113": {
"condition": {
"expression": Array[Dictionary]([{
"type": "variable",
"value": "Data"
}, {
"type": "dot"
}, {
"type": "variable",
"value": "notes"
}, {
"type": "comparison",
"value": "=="
}, {
"type": "number",
"value": 16
}])
},
"id": "113",
"next_conditional_id": "120",
"next_id": "114",
"next_id_after": "end!",
"parent_id": "105",
"type": "condition"
},
"114": {
"character": "Superviseur",
"character_replacements": Array[Dictionary]([]),
"id": "114",
"next_id": "115",
"parent_id": "113",
"tags": PackedStringArray(),
"text": "Tu as très bien compris le scénario, mais la résolution n'était pas excellente dans ce cas, certes apaiser les tensions est une très bonne idée, mais dans le cadre d'un match, la pression va reprendre et les tensions aussi. Voici ta note.",
"text_replacements": Array[Dictionary]([]),
"translation_key": "Tu as très bien compris le scénario, mais la résolution n'était pas excellente dans ce cas, certes apaiser les tensions est une très bonne idée, mais dans le cadre d'un match, la pression va reprendre et les tensions aussi. Voici ta note.",
"type": "dialogue"
},
"115": {
"id": "115",
"mutation": {
"expression": Array[Dictionary]([{
"type": "variable",
"value": "VarPrinci"
}, {
"type": "dot"
}, {
"function": "do_notes",
"type": "function",
"value": Array[Array]([])
}])
},
"next_id": "116",
"parent_id": "113",
"type": "mutation"
},
"116": {
"id": "116",
"mutation": {
"expression": Array[Dictionary]([{
"type": "variable",
"value": "Data"
}, {
"type": "dot"
}, {
"function": "set_complete_fiche_end",
"type": "function",
"value": Array[Array]([Array[Dictionary]([{
"type": "string",
"value": "stade"
}])])
}])
},
"next_id": "117",
"parent_id": "113",
"type": "mutation"
},
"117": {
"id": "117",
"mutation": {
"expression": Array[Dictionary]([{
"type": "variable",
"value": "VarPrinci"
}, {
"type": "dot"
}, {
"function": "update_talking",
"type": "function",
"value": Array[Array]([Array[Dictionary]([{
"type": "variable",
"value": "false"
}])])
}])
},
"next_id": "118",
"parent_id": "113",
"type": "mutation"
},
"118": {
"id": "118",
"mutation": {
"expression": Array[Dictionary]([{
"type": "variable",
"value": "Data"
}, {
"type": "dot"
}, {
"function": "set_has_talked_supervisor",
"type": "function",
"value": Array[Array]([Array[Dictionary]([{
"type": "variable",
"value": "false"
}])])
}])
},
"next_id": "119",
"parent_id": "113",
"type": "mutation"
},
"119": {
"id": "119",
"mutation": {
"expression": Array[Dictionary]([{
"type": "variable",
"value": "VarPrinci"
}, {
"type": "dot"
}, {
"function": "set_update_count_talk",
"type": "function",
"value": Array[Array]([Array[Dictionary]([{
"type": "number",
"value": 3
}])])
}])
},
"next_id": "end!",
"parent_id": "113",
"type": "mutation"
},
"12": {
"id": "12",
"mutation": {
"expression": Array[Dictionary]([{
"type": "variable",
"value": "Data"
}, {
"type": "dot"
}, {
"function": "set_has_talked_supervisor",
"type": "function",
"value": Array[Array]([Array[Dictionary]([{
"type": "variable",
"value": "true"
}])])
}])
},
"next_id": "13",
"parent_id": "5",
"type": "mutation"
},
"120": {
"condition": {
"expression": Array[Dictionary]([{
"type": "variable",
"value": "Data"
}, {
"type": "dot"
}, {
"type": "variable",
"value": "notes"
}, {
"type": "comparison",
"value": "=="
}, {
"type": "number",
"value": 10
}])
},
"id": "120",
"next_conditional_id": "127",
"next_id": "121",
"next_id_after": "end!",
"parent_id": "105",
"type": "condition"
},
"121": {
"character": "Superviseur",
"character_replacements": Array[Dictionary]([]),
"id": "121",
"next_id": "122",
"parent_id": "120",
"tags": PackedStringArray(),
"text": "Manque de compréhension du scénario, ici, on voit très bien que l'un commence, l'autre riposte. Cela aurait été juste si l'autre n'aurait rien fait/dit en retour! Voici ta note.",
"text_replacements": Array[Dictionary]([]),
"translation_key": "Manque de compréhension du scénario, ici, on voit très bien que l'un commence, l'autre riposte. Cela aurait été juste si l'autre n'aurait rien fait/dit en retour! Voici ta note.",
"type": "dialogue"
},
"122": {
"id": "122",
"mutation": {
"expression": Array[Dictionary]([{
"type": "variable",
"value": "VarPrinci"
}, {
"type": "dot"
}, {
"function": "do_notes",
"type": "function",
"value": Array[Array]([])
}])
},
"next_id": "123",
"parent_id": "120",
"type": "mutation"
},
"123": {
"id": "123",
"mutation": {
"expression": Array[Dictionary]([{
"type": "variable",
"value": "Data"
}, {
"type": "dot"
}, {
"function": "set_complete_fiche_end",
"type": "function",
"value": Array[Array]([Array[Dictionary]([{
"type": "string",
"value": "stade"
}])])
}])
},
"next_id": "124",
"parent_id": "120",
"type": "mutation"
},
"124": {
"id": "124",
"mutation": {
"expression": Array[Dictionary]([{
"type": "variable",
"value": "VarPrinci"
}, {
"type": "dot"
}, {
"function": "update_talking",
"type": "function",
"value": Array[Array]([Array[Dictionary]([{
"type": "variable",
"value": "false"
}])])
}])
},
"next_id": "125",
"parent_id": "120",
"type": "mutation"
},
"125": {
"id": "125",
"mutation": {
"expression": Array[Dictionary]([{
"type": "variable",
"value": "Data"
}, {
"type": "dot"
}, {
"function": "set_has_talked_supervisor",
"type": "function",
"value": Array[Array]([Array[Dictionary]([{
"type": "variable",
"value": "false"
}])])
}])
},
"next_id": "126",
"parent_id": "120",
"type": "mutation"
},
"126": {
"id": "126",
"mutation": {
"expression": Array[Dictionary]([{
"type": "variable",
"value": "VarPrinci"
}, {
"type": "dot"
}, {
"function": "set_update_count_talk",
"type": "function",
"value": Array[Array]([Array[Dictionary]([{
"type": "number",
"value": 3
}])])
}])
},
"next_id": "end!",
"parent_id": "120",
"type": "mutation"
},
"127": {
"condition": {
"expression": Array[Dictionary]([{
"type": "variable",
"value": "Data"
}, {
"type": "dot"
}, {
"type": "variable",
"value": "notes"
}, {
"type": "comparison",
"value": "=="
}, {
"type": "number",
"value": 0
}])
},
"id": "127",
"next_conditional_id": "end!",
"next_id": "128",
"next_id_after": "end!",
"parent_id": "105",
"type": "condition"
},
"128": {
"character": "Superviseur",
"character_replacements": Array[Dictionary]([]),
"id": "128",
"next_id": "129",
"parent_id": "127",
"tags": PackedStringArray(),
"text": "Très déçu, tâche de te concentrer dans la suite. Voici ta note.",
"text_replacements": Array[Dictionary]([]),
"translation_key": "Très déçu, tâche de te concentrer dans la suite. Voici ta note.",
"type": "dialogue"
},
"129": {
"id": "129",
"mutation": {
"expression": Array[Dictionary]([{
"type": "variable",
"value": "VarPrinci"
}, {
"type": "dot"
}, {
"function": "do_notes",
"type": "function",
"value": Array[Array]([])
}])
},
"next_id": "130",
"parent_id": "127",
"type": "mutation"
},
"13": {
"id": "13",
"mutation": {
"expression": Array[Dictionary]([{
"type": "variable",
"value": "VarPrinci"
}, {
"type": "dot"
}, {
"function": "set_update_count_talk",
"type": "function",
"value": Array[Array]([Array[Dictionary]([{
"type": "number",
"value": 1
}])])
}])
},
"next_id": "14",
"parent_id": "5",
"type": "mutation"
},
"130": {
"id": "130",
"mutation": {
"expression": Array[Dictionary]([{
"type": "variable",
"value": "Data"
}, {
"type": "dot"
}, {
"function": "set_complete_fiche_end",
"type": "function",
"value": Array[Array]([Array[Dictionary]([{
"type": "string",
"value": "stade"
}])])
}])
},
"next_id": "131",
"parent_id": "127",
"type": "mutation"
},
"131": {
"id": "131",
"mutation": {
"expression": Array[Dictionary]([{
"type": "variable",
"value": "VarPrinci"
}, {
"type": "dot"
}, {
"function": "update_talking",
"type": "function",
"value": Array[Array]([Array[Dictionary]([{
"type": "variable",
"value": "false"
}])])
}])
},
"next_id": "132",
"parent_id": "127",
"type": "mutation"
},
"132": {
"id": "132",
"mutation": {
"expression": Array[Dictionary]([{
"type": "variable",
"value": "Data"
}, {
"type": "dot"
}, {
"function": "set_has_talked_supervisor",
"type": "function",
"value": Array[Array]([Array[Dictionary]([{
"type": "variable",
"value": "false"
}])])
}])
},
"next_id": "133",
"parent_id": "127",
"type": "mutation"
},
"133": {
"id": "133",
"mutation": {
"expression": Array[Dictionary]([{
"type": "variable",
"value": "VarPrinci"
}, {
"type": "dot"
}, {
"function": "set_update_count_talk",
"type": "function",
"value": Array[Array]([Array[Dictionary]([{
"type": "number",
"value": 3
}])])
}])
},
"next_id": "end!",
"parent_id": "127",
"type": "mutation"
},
"134": {
"id": "134",
"next_conditional_id": "end!",
"next_id": "135",
"next_id_after": "end!",
"parent_id": "2",
"type": "condition"
},
"135": {
"id": "135",
"mutation": {
"expression": Array[Dictionary]([{
"type": "variable",
"value": "VarPrinci"
}, {
"type": "dot"
}, {
"function": "update_talking",
"type": "function",
"value": Array[Array]([Array[Dictionary]([{
"type": "variable",
"value": "false"
}])])
}])
},
"next_id": "end!",
"parent_id": "134",
"type": "mutation"
},
"136": {
"condition": {
"expression": Array[Dictionary]([{
"type": "variable",
"value": "Data"
}, {
"type": "dot"
}, {
"type": "variable",
"value": "selectedScenarioCase"
}, {
"type": "comparison",
"value": "=="
}, {
"type": "string",
"value": "s1_c2"
}])
},
"id": "136",
"next_conditional_id": "end!",
"next_id": "137",
"next_id_after": "end!",
"type": "condition"
},
"137": {
"id": "137",
"mutation": {
"expression": Array[Dictionary]([{
"type": "variable",
"value": "VarPrinci"
}, {
"type": "dot"
}, {
"function": "update_talking",
"type": "function",
"value": Array[Array]([Array[Dictionary]([{
"type": "variable",
"value": "true"
}])])
}])
},
"next_id": "138",
"parent_id": "136",
"type": "mutation"
},
"138": {
"id": "138",
"mutation": {
"expression": Array[Dictionary]([{
"type": "variable",
"value": "Data"
}, {
"type": "dot"
}, {
"function": "set_end_dialog",
"type": "function",
"value": Array[Array]([Array[Dictionary]([{
"type": "variable",
"value": "true"
}])])
}])
},
"next_id": "139",
"parent_id": "136",
"type": "mutation"
},
"139": {
"condition": {
"expression": Array[Dictionary]([{
"type": "variable",
"value": "VarPrinci"
}, {
"type": "dot"
}, {
"type": "variable",
"value": "count"
}, {
"type": "comparison",
"value": "=="
}, {
"type": "number",
"value": 0
}, {
"type": "colon"
}])
},
"id": "139",
"next_conditional_id": "149",
"next_id": "140",
"next_id_after": "end!",
"parent_id": "136",
"type": "condition"
},
"14": {
"id": "14",
"is_snippet": false,
"next_id": "end",
"parent_id": "5",
"type": "goto"
},
"140": {
"character": "Superviseur",
"character_replacements": Array[Dictionary]([]),
"id": "140",
"next_id": "141",
"parent_id": "139",
"tags": PackedStringArray(),
"text": "Bienvenue, je compte sur toi pour analyser la situation et prendre le meilleur choix possible. Ton année se joue sur cela.",
"text_replacements": Array[Dictionary]([]),
"translation_key": "Bienvenue, je compte sur toi pour analyser la situation et prendre le meilleur choix possible. Ton année se joue sur cela.",
"type": "dialogue"
},
"141": {
"id": "141",
"next_id": "142",
"next_id_after": "145",
"parent_id": "139",
"responses": PackedStringArray("141"),
"tags": PackedStringArray(),
"text": "Aucun problème, je vais faire tout mon possible.",
"text_replacements": Array[Dictionary]([]),
"translation_key": "Aucun problème, je vais faire tout mon possible.",
"type": "response"
},
"142": {
"id": "142",
"mutation": {
"expression": Array[Dictionary]([{
"type": "variable",
"value": "VarPrinci"
}, {
"type": "dot"
}, {
"function": "do_fiche",
"type": "function",
"value": Array[Array]([])
}])
},
"next_id": "143",
"parent_id": "141",
"type": "mutation"
},
"143": {
"character": "Superviseur",
"character_replacements": Array[Dictionary]([]),
"id": "143",
"next_id": "144",
"parent_id": "141",
"tags": PackedStringArray(),
"text": "Bien, voici ce que j'ai comme informations sur les personnes concernées. Met ces fiches dans ton sac.",
"text_replacements": Array[Dictionary]([]),
"translation_key": "Bien, voici ce que j'ai comme informations sur les personnes concernées. Met ces fiches dans ton sac.",
"type": "dialogue"
},
"144": {
"character": "Superviseur",
"character_replacements": Array[Dictionary]([]),
"id": "144",
"next_id": "145",
"parent_id": "141",
"tags": PackedStringArray(),
"text": "Je compte sur toi.",
"text_replacements": Array[Dictionary]([]),
"translation_key": "Je compte sur toi.",
"type": "dialogue"
},
"145": {
"id": "145",
"mutation": {
"expression": Array[Dictionary]([{
"type": "variable",
"value": "VarPrinci"
}, {
"type": "dot"
}, {
"function": "update_talking",
"type": "function",
"value": Array[Array]([Array[Dictionary]([{
"type": "variable",
"value": "false"
}])])
}])
},
"next_id": "146",
"parent_id": "139",
"type": "mutation"
},
"146": {
"id": "146",
"mutation": {
"expression": Array[Dictionary]([{
"type": "variable",
"value": "Data"
}, {
"type": "dot"
}, {
"function": "set_has_talked_supervisor",
"type": "function",
"value": Array[Array]([Array[Dictionary]([{
"type": "variable",
"value": "true"
}])])
}])
},
"next_id": "147",
"parent_id": "139",
"type": "mutation"
},
"147": {
"id": "147",
"mutation": {
"expression": Array[Dictionary]([{
"type": "variable",
"value": "VarPrinci"
}, {
"type": "dot"
}, {
"function": "set_update_count_talk",
"type": "function",
"value": Array[Array]([Array[Dictionary]([{
"type": "number",
"value": 1
}])])
}])
},
"next_id": "148",
"parent_id": "139",
"type": "mutation"
},
"148": {
"id": "148",
"is_snippet": false,
"next_id": "end",
"parent_id": "139",
"type": "goto"
},
"149": {
"condition": {
"expression": Array[Dictionary]([{
"type": "variable",
"value": "VarPrinci"
}, {
"type": "dot"
}, {
"type": "variable",
"value": "count"
}, {
"type": "comparison",
"value": "=="
}, {
"type": "number",
"value": 1
}, {
"type": "colon"
}])
},
"id": "149",
"next_conditional_id": "232",
"next_id": "150",
"next_id_after": "end!",
"parent_id": "136",
"type": "condition"
},
"15": {
"condition": {
"expression": Array[Dictionary]([{
"type": "variable",
"value": "VarPrinci"
}, {
"type": "dot"
}, {
"type": "variable",
"value": "count"
}, {
"type": "comparison",
"value": "=="
}, {
"type": "number",
"value": 1
}, {
"type": "colon"
}])
},
"id": "15",
"next_conditional_id": "105",
"next_id": "16",
"next_id_after": "end!",
"parent_id": "2",
"type": "condition"
},
"150": {
"character": "Superviseur",
"character_replacements": Array[Dictionary]([]),
"id": "150",
"next_id": "151",
"parent_id": "149",
"tags": PackedStringArray(),
"text": "Je vois que tu as bien analysé la situation, alors quel est ton verdict ?",
"text_replacements": Array[Dictionary]([]),
"translation_key": "Je vois que tu as bien analysé la situation, alors quel est ton verdict ?",
"type": "dialogue"
},
"151": {
"id": "151",
"next_id": "152",
"next_id_after": "230",
"parent_id": "149",
"responses": PackedStringArray("151", "174", "190", "213", "229"),
"tags": PackedStringArray(),
"text": "Je pense que c'est de la faute de Paul.",
"text_replacements": Array[Dictionary]([]),
"translation_key": "Je pense que c'est de la faute de Paul.",
"type": "response"
},
"152": {
"character": "Superviseur",
"character_replacements": Array[Dictionary]([]),
"id": "152",
"next_id": "153",
"parent_id": "151",
"tags": PackedStringArray(),
"text": "Excellent, tu as visiblement très bien compris le scénario, que voudrais-tu faire ?",
"text_replacements": Array[Dictionary]([]),
"translation_key": "Excellent, tu as visiblement très bien compris le scénario, que voudrais-tu faire ?",
"type": "dialogue"
},
"153": {
"id": "153",
"next_id": "154",
"next_id_after": "230",
"parent_id": "151",
"responses": PackedStringArray("153", "160", "167"),
"tags": PackedStringArray(),
"text": "Je pense que l'arbitre doit l'exclure du match et Yair doit porter plainte.",
"text_replacements": Array[Dictionary]([]),
"translation_key": "Je pense que l'arbitre doit l'exclure du match et Yair doit porter plainte.",
"type": "response"
},
"154": {
"character": "Superviseur",
"character_replacements": Array[Dictionary]([]),
"id": "154",
"next_id": "155",
"parent_id": "153",
"tags": PackedStringArray(),
"text": "Excellente décision.",
"text_replacements": Array[Dictionary]([]),
"translation_key": "Excellente décision.",
"type": "dialogue"
},
"155": {
"id": "155",
"mutation": {
"expression": Array[Dictionary]([{
"type": "variable",
"value": "VarPrinci"
}, {
"type": "dot"
}, {
"function": "update_talking",
"type": "function",
"value": Array[Array]([Array[Dictionary]([{
"type": "variable",
"value": "false"
}])])
}])
},
"next_id": "156",
"parent_id": "153",
"type": "mutation"
},
"156": {
"id": "156",
"mutation": {
"expression": Array[Dictionary]([{
"type": "variable",
"value": "Data"
}, {
"type": "dot"
}, {
"function": "set_notes",
"type": "function",
"value": Array[Array]([Array[Dictionary]([{
"type": "number",
"value": 18
}])])
}])
},
"next_id": "157",
"parent_id": "153",
"type": "mutation"
},
"157": {
"id": "157",
"mutation": {
"expression": Array[Dictionary]([{
"type": "variable",
"value": "VarPrinci"
}, {
"type": "dot"
}, {
"function": "set_update_count_talk",
"type": "function",
"value": Array[Array]([Array[Dictionary]([{
"type": "number",
"value": 2
}])])
}])
},
"next_id": "158",
"parent_id": "153",
"type": "mutation"
},
"158": {
"id": "158",
"mutation": {
"expression": Array[Dictionary]([{
"type": "variable",
"value": "Data"
}, {
"type": "dot"
}, {
"function": "set_has_talked_supervisor",
"type": "function",
"value": Array[Array]([Array[Dictionary]([{
"type": "variable",
"value": "false"
}])])
}])
},
"next_id": "159",
"parent_id": "153",
"type": "mutation"
},
"159": {
"id": "159",
"is_snippet": false,
"next_id": "end",
"parent_id": "153",
"type": "goto"
},
"16": {
"character": "Superviseur",
"character_replacements": Array[Dictionary]([]),
"id": "16",
"next_id": "17",
"parent_id": "15",
"tags": PackedStringArray(),
"text": "Je vois que tu as bien analysé la situation, alors quel est ton verdict ?",
"text_replacements": Array[Dictionary]([]),
"translation_key": "Je vois que tu as bien analysé la situation, alors quel est ton verdict ?",
"type": "dialogue"
},
"160": {
"id": "160",
"next_id": "161",
"next_id_after": "230",
"parent_id": "151",
"tags": PackedStringArray(),
"text": "Je pense que je devrais encourager Paul à présenter des excuses à Yair.",
"text_replacements": Array[Dictionary]([]),
"translation_key": "Je pense que je devrais encourager Paul à présenter des excuses à Yair.",
"type": "response"
},
"161": {
"character": "Superviseur",
"character_replacements": Array[Dictionary]([]),
"id": "161",
"next_id": "162",
"parent_id": "160",
"tags": PackedStringArray(),
"text": "Ce n'est pas une mauvaise solution, va lui parler!",
"text_replacements": Array[Dictionary]([]),
"translation_key": "Ce n'est pas une mauvaise solution, va lui parler!",
"type": "dialogue"
},
"162": {
"id": "162",
"mutation": {
"expression": Array[Dictionary]([{
"type": "variable",
"value": "VarPrinci"
}, {
"type": "dot"
}, {
"function": "update_talking",
"type": "function",
"value": Array[Array]([Array[Dictionary]([{
"type": "variable",
"value": "false"
}])])
}])
},
"next_id": "163",
"parent_id": "160",
"type": "mutation"
},
"163": {
"id": "163",
"mutation": {
"expression": Array[Dictionary]([{
"type": "variable",
"value": "Data"
}, {
"type": "dot"
}, {
"function": "set_notes",
"type": "function",
"value": Array[Array]([Array[Dictionary]([{
"type": "number",
"value": 14
}])])
}])
},
"next_id": "164",
"parent_id": "160",
"type": "mutation"
},
"164": {
"id": "164",
"mutation": {
"expression": Array[Dictionary]([{
"type": "variable",
"value": "VarPrinci"
}, {
"type": "dot"
}, {
"function": "set_update_count_talk",
"type": "function",
"value": Array[Array]([Array[Dictionary]([{
"type": "number",
"value": 5
}])])
}])
},
"next_id": "165",
"parent_id": "160",
"type": "mutation"
},
"165": {
"id": "165",
"mutation": {
"expression": Array[Dictionary]([{
"type": "variable",
"value": "Data"
}, {
"type": "dot"
}, {
"function": "set_has_talked_supervisor",
"type": "function",
"value": Array[Array]([Array[Dictionary]([{
"type": "variable",
"value": "false"
}])])
}])
},
"next_id": "166",
"parent_id": "160",
"type": "mutation"
},
"166": {
"id": "166",
"is_snippet": false,
"next_id": "end",
"parent_id": "160",
"type": "goto"
},
"167": {
"id": "167",
"next_id": "168",
"next_id_after": "230",
"parent_id": "151",
"tags": PackedStringArray(),
"text": "Je pense que je devrais adopter une approche plus directe (se battre).",
"text_replacements": Array[Dictionary]([]),
"translation_key": "Je pense que je devrais adopter une approche plus directe (se battre).",
"type": "response"
},
"168": {
"character": "Superviseur",
"character_replacements": Array[Dictionary]([]),
"id": "168",
"next_id": "169",
"parent_id": "167",
"tags": PackedStringArray(),
"text": "Prépare-toi à affronter la situation de front. Fonce !",
"text_replacements": Array[Dictionary]([]),
"translation_key": "Prépare-toi à affronter la situation de front. Fonce !",
"type": "dialogue"
},
"169": {
"id": "169",
"mutation": {
"expression": Array[Dictionary]([{
"type": "variable",
"value": "VarPrinci"
}, {
"type": "dot"
}, {
"function": "update_talking",
"type": "function",
"value": Array[Array]([Array[Dictionary]([{
"type": "variable",
"value": "false"
}])])
}])
},
"next_id": "170",
"parent_id": "167",
"type": "mutation"
},
"17": {
"id": "17",
"next_id": "18",
"next_id_after": "103",
"parent_id": "15",
"responses": PackedStringArray("17", "40", "63", "86", "102"),
"tags": PackedStringArray(),
"text": "Je pense que c'est de la faute de Jack.",
"text_replacements": Array[Dictionary]([]),
"translation_key": "Je pense que c'est de la faute de Jack.",
"type": "response"
},
"170": {
"id": "170",
"mutation": {
"expression": Array[Dictionary]([{
"type": "variable",
"value": "Data"
}, {
"type": "dot"
}, {
"function": "set_has_talked_supervisor",
"type": "function",
"value": Array[Array]([Array[Dictionary]([{
"type": "variable",
"value": "false"
}])])
}])
},
"next_id": "171",
"parent_id": "167",
"type": "mutation"
},
"171": {
"id": "171",
"mutation": {
"expression": Array[Dictionary]([{
"type": "variable",
"value": "VarPrinci"
}, {
"type": "dot"
}, {
"function": "start_fighting",
"type": "function",
"value": Array[Array]([Array[Dictionary]([{
"type": "string",
"value": "A"
}])])
}])
},
"next_id": "172",
"parent_id": "167",
"type": "mutation"
},
"172": {
"id": "172",
"mutation": {
"expression": Array[Dictionary]([{
"type": "variable",
"value": "VarPrinci"
}, {
"type": "dot"
}, {
"function": "set_update_count_talk",
"type": "function",
"value": Array[Array]([Array[Dictionary]([{
"type": "number",
"value": 3
}])])
}])
},
"next_id": "173",
"parent_id": "167",
"type": "mutation"
},
"173": {
"id": "173",
"is_snippet": false,
"next_id": "end",
"parent_id": "167",
"type": "goto"
},
"174": {
"id": "174",
"next_id": "175",
"next_id_after": "230",
"parent_id": "149",
"tags": PackedStringArray(),
"text": "Je pense que c'est de la faute de Yair.",
"text_replacements": Array[Dictionary]([]),
"translation_key": "Je pense que c'est de la faute de Yair.",
"type": "response"
},
"175": {
"character": "Superviseur",
"character_replacements": Array[Dictionary]([]),
"id": "175",
"next_id": "176",
"parent_id": "174",
"tags": PackedStringArray(),
"text": "Yair s'est uniquement défendu, que voudrais-tu dire à Yair?",
"text_replacements": Array[Dictionary]([]),
"translation_key": "Yair s'est uniquement défendu, que voudrais-tu dire à Yair?",
"type": "dialogue"
},
"176": {
"id": "176",
"next_id": "177",
"next_id_after": "230",
"parent_id": "174",
"responses": PackedStringArray("176", "183"),
"tags": PackedStringArray(),
"text": "Je pense que Yair devrait s'excuser pour le premier coup porté.",
"text_replacements": Array[Dictionary]([]),
"translation_key": "Je pense que Yair devrait s'excuser pour le premier coup porté.",
"type": "response"
},
"177": {
"character": "Superviseur",
"character_replacements": Array[Dictionary]([]),
"id": "177",
"next_id": "178",
"parent_id": "176",
"tags": PackedStringArray(),
"text": "Alors qu'il vient de se faire presque tabasser ? Je suis déçu...",
"text_replacements": Array[Dictionary]([]),
"translation_key": "Alors qu'il vient de se faire presque tabasser ? Je suis déçu...",
"type": "dialogue"
},
"178": {
"id": "178",
"mutation": {
"expression": Array[Dictionary]([{
"type": "variable",
"value": "VarPrinci"
}, {
"type": "dot"
}, {
"function": "update_talking",
"type": "function",
"value": Array[Array]([Array[Dictionary]([{
"type": "variable",
"value": "false"
}])])
}])
},
"next_id": "179",
"parent_id": "176",
"type": "mutation"
},
"179": {
"id": "179",
"mutation": {
"expression": Array[Dictionary]([{
"type": "variable",
"value": "Data"
}, {
"type": "dot"
}, {
"function": "set_notes",
"type": "function",
"value": Array[Array]([Array[Dictionary]([{
"type": "number",
"value": 5
}])])
}])
},
"next_id": "180",
"parent_id": "176",
"type": "mutation"
},
"18": {
"character": "Superviseur",
"character_replacements": Array[Dictionary]([]),
"id": "18",
"next_id": "19",
"parent_id": "17",
"tags": PackedStringArray(),
"text": "Mettre toute la responsabilité sur une seule personne, c'est audacieux. Comment envisages-tu résoudre le conflit ?",
"text_replacements": Array[Dictionary]([]),
"translation_key": "Mettre toute la responsabilité sur une seule personne, c'est audacieux. Comment envisages-tu résoudre le conflit ?",
"type": "dialogue"
},
"180": {
"id": "180",
"mutation": {
"expression": Array[Dictionary]([{
"type": "variable",
"value": "VarPrinci"
}, {
"type": "dot"
}, {
"function": "set_update_count_talk",
"type": "function",
"value": Array[Array]([Array[Dictionary]([{
"type": "number",
"value": 2
}])])
}])
},
"next_id": "181",
"parent_id": "176",
"type": "mutation"
},
"181": {
"id": "181",
"mutation": {
"expression": Array[Dictionary]([{
"type": "variable",
"value": "Data"
}, {
"type": "dot"
}, {
"function": "set_has_talked_supervisor",
"type": "function",
"value": Array[Array]([Array[Dictionary]([{
"type": "variable",
"value": "false"
}])])
}])
},
"next_id": "182",
"parent_id": "176",
"type": "mutation"
},
"182": {
"id": "182",
"is_snippet": false,
"next_id": "end",
"parent_id": "176",
"type": "goto"
},
"183": {
"id": "183",
"next_id": "184",
"next_id_after": "230",
"parent_id": "174",
"tags": PackedStringArray(),
"text": "Je pense que je devrais adopter une approche plus directe(se battre).",
"text_replacements": Array[Dictionary]([]),
"translation_key": "Je pense que je devrais adopter une approche plus directe(se battre).",
"type": "response"
},
"184": {
"character": "Superviseur",
"character_replacements": Array[Dictionary]([]),
"id": "184",
"next_id": "185",
"parent_id": "183",
"tags": PackedStringArray(),
"text": "Prépare-toi à affronter la situation de front. Fonce !",
"text_replacements": Array[Dictionary]([]),
"translation_key": "Prépare-toi à affronter la situation de front. Fonce !",
"type": "dialogue"
},
"185": {
"id": "185",
"mutation": {
"expression": Array[Dictionary]([{
"type": "variable",
"value": "VarPrinci"
}, {
"type": "dot"
}, {
"function": "update_talking",
"type": "function",
"value": Array[Array]([Array[Dictionary]([{
"type": "variable",
"value": "false"
}])])
}])
},
"next_id": "186",
"parent_id": "183",
"type": "mutation"
},
"186": {
"id": "186",
"mutation": {
"expression": Array[Dictionary]([{
"type": "variable",
"value": "Data"
}, {
"type": "dot"
}, {
"function": "set_has_talked_supervisor",
"type": "function",
"value": Array[Array]([Array[Dictionary]([{
"type": "variable",
"value": "false"
}])])
}])
},
"next_id": "187",
"parent_id": "183",
"type": "mutation"
},
"187": {
"id": "187",
"mutation": {
"expression": Array[Dictionary]([{
"type": "variable",
"value": "VarPrinci"
}, {
"type": "dot"
}, {
"function": "start_fighting",
"type": "function",
"value": Array[Array]([Array[Dictionary]([{
"type": "string",
"value": "B"
}])])
}])
},
"next_id": "188",
"parent_id": "183",
"type": "mutation"
},
"188": {
"id": "188",
"mutation": {
"expression": Array[Dictionary]([{
"type": "variable",
"value": "VarPrinci"
}, {
"type": "dot"
}, {
"function": "set_update_count_talk",
"type": "function",
"value": Array[Array]([Array[Dictionary]([{
"type": "number",
"value": 2
}])])
}])
},
"next_id": "189",
"parent_id": "183",
"type": "mutation"
},
"189": {
"id": "189",
"is_snippet": false,
"next_id": "end",
"parent_id": "183",
"type": "goto"
},
"19": {
"id": "19",
"next_id": "20",
"next_id_after": "103",
"parent_id": "17",
"responses": PackedStringArray("19", "26", "33"),
"tags": PackedStringArray(),
"text": "Je pense que je devrais expliquer à Jack où est son erreur.",
"text_replacements": Array[Dictionary]([]),
"translation_key": "Je pense que je devrais expliquer à Jack où est son erreur.",
"type": "response"
},
"190": {
"id": "190",
"next_id": "191",
"next_id_after": "230",
"parent_id": "149",
"tags": PackedStringArray(),
"text": "Je pense que c'est de la faute des deux.",
"text_replacements": Array[Dictionary]([]),
"translation_key": "Je pense que c'est de la faute des deux.",
"type": "response"
},
"191": {
"character": "Superviseur",
"character_replacements": Array[Dictionary]([]),
"id": "191",
"next_id": "192",
"parent_id": "190",
"tags": PackedStringArray(),
"text": "Un choix très intéressant si tu m'expliques comment tu comptes résoudre ce conflit.",
"text_replacements": Array[Dictionary]([]),
"translation_key": "Un choix très intéressant si tu m'expliques comment tu comptes résoudre ce conflit.",
"type": "dialogue"
},
"192": {
"id": "192",
"next_id": "193",
"next_id_after": "230",
"parent_id": "190",
"responses": PackedStringArray("192", "199", "206"),
"tags": PackedStringArray(),
"text": "Dire à l'arbitre de relancer le match directement.",
"text_replacements": Array[Dictionary]([]),
"translation_key": "Dire à l'arbitre de relancer le match directement.",
"type": "response"
},
"193": {
"character": "Superviseur",
"character_replacements": Array[Dictionary]([]),
"id": "193",
"next_id": "194",
"parent_id": "192",
"tags": PackedStringArray(),
"text": "Sans régler le conflit ? C'est une réponse peu adaptée, c'est regrettable...",
"text_replacements": Array[Dictionary]([]),
"translation_key": "Sans régler le conflit ? C'est une réponse peu adaptée, c'est regrettable...",
"type": "dialogue"
},
"194": {
"id": "194",
"mutation": {
"expression": Array[Dictionary]([{
"type": "variable",
"value": "VarPrinci"
}, {
"type": "dot"
}, {
"function": "update_talking",
"type": "function",
"value": Array[Array]([Array[Dictionary]([{
"type": "variable",
"value": "false"
}])])
}])
},
"next_id": "195",
"parent_id": "192",
"type": "mutation"
},
"195": {
"id": "195",
"mutation": {
"expression": Array[Dictionary]([{
"type": "variable",
"value": "Data"
}, {
"type": "dot"
}, {
"function": "set_notes",
"type": "function",
"value": Array[Array]([Array[Dictionary]([{
"type": "number",
"value": 0
}])])
}])
},
"next_id": "196",
"parent_id": "192",
"type": "mutation"
},
"196": {
"id": "196",
"mutation": {
"expression": Array[Dictionary]([{
"type": "variable",
"value": "VarPrinci"
}, {
"type": "dot"
}, {
"function": "set_update_count_talk",
"type": "function",
"value": Array[Array]([Array[Dictionary]([{
"type": "number",
"value": 2
}])])
}])
},
"next_id": "197",
"parent_id": "192",
"type": "mutation"
},
"197": {
"id": "197",
"mutation": {
"expression": Array[Dictionary]([{
"type": "variable",
"value": "Data"
}, {
"type": "dot"
}, {
"function": "set_has_talked_supervisor",
"type": "function",
"value": Array[Array]([Array[Dictionary]([{
"type": "variable",
"value": "false"
}])])
}])
},
"next_id": "198",
"parent_id": "192",
"type": "mutation"
},
"198": {
"id": "198",
"is_snippet": false,
"next_id": "end",
"parent_id": "192",
"type": "goto"
},
"199": {
"id": "199",
"next_id": "200",
"next_id_after": "230",
"parent_id": "190",
"tags": PackedStringArray(),
"text": "A la fin du match, les deux doivent s'excuser pour leur geste, surtout Paul.",
"text_replacements": Array[Dictionary]([]),
"translation_key": "A la fin du match, les deux doivent s'excuser pour leur geste, surtout Paul.",
"type": "response"
},
"2": {
"condition": {
"expression": Array[Dictionary]([{
"type": "variable",
"value": "Data"
}, {
"type": "dot"
}, {
"type": "variable",
"value": "selectedScenarioCase"
}, {
"type": "comparison",
"value": "=="
}, {
"type": "string",
"value": "s1_c1"
}])
},
"id": "2",
"next_conditional_id": "136",
"next_id": "3",
"next_id_after": "end!",
"type": "condition"
},
"20": {
"character": "Superviseur",
"character_replacements": Array[Dictionary]([]),
"id": "20",
"next_id": "21",
"parent_id": "19",
"tags": PackedStringArray(),
"text": "Dans ce cas, vas lui parler. Je compte sur toi !",
"text_replacements": Array[Dictionary]([]),
"translation_key": "Dans ce cas, vas lui parler. Je compte sur toi !",
"type": "dialogue"
},
"200": {
"character": "Superviseur",
"character_replacements": Array[Dictionary]([]),
"id": "200",
"next_id": "201",
"parent_id": "199",
"tags": PackedStringArray(),
"text": "Sage décision. Mais je ne suis pas sûre que cela suffise.",
"text_replacements": Array[Dictionary]([]),
"translation_key": "Sage décision. Mais je ne suis pas sûre que cela suffise.",
"type": "dialogue"
},
"201": {
"id": "201",
"mutation": {
"expression": Array[Dictionary]([{
"type": "variable",
"value": "VarPrinci"
}, {
"type": "dot"
}, {
"function": "update_talking",
"type": "function",
"value": Array[Array]([Array[Dictionary]([{
"type": "variable",
"value": "false"
}])])
}])
},
"next_id": "202",
"parent_id": "199",
"type": "mutation"
},
"202": {
"id": "202",
"mutation": {
"expression": Array[Dictionary]([{
"type": "variable",
"value": "Data"
}, {
"type": "dot"
}, {
"function": "set_notes",
"type": "function",
"value": Array[Array]([Array[Dictionary]([{
"type": "number",
"value": 16
}])])
}])
},
"next_id": "203",
"parent_id": "199",
"type": "mutation"
},
"203": {
"id": "203",
"mutation": {
"expression": Array[Dictionary]([{
"type": "variable",
"value": "VarPrinci"
}, {
"type": "dot"
}, {
"function": "set_update_count_talk",
"type": "function",
"value": Array[Array]([Array[Dictionary]([{
"type": "number",
"value": 2
}])])
}])
},
"next_id": "204",
"parent_id": "199",
"type": "mutation"
},
"204": {
"id": "204",
"mutation": {
"expression": Array[Dictionary]([{
"type": "variable",
"value": "Data"
}, {
"type": "dot"
}, {
"function": "set_has_talked_supervisor",
"type": "function",
"value": Array[Array]([Array[Dictionary]([{
"type": "variable",
"value": "false"
}])])
}])
},
"next_id": "205",
"parent_id": "199",
"type": "mutation"
},
"205": {
"id": "205",
"is_snippet": false,
"next_id": "end",
"parent_id": "199",
"type": "goto"
},
"206": {
"id": "206",
"next_id": "207",
"next_id_after": "230",
"parent_id": "190",
"tags": PackedStringArray(),
"text": "Exclure les joueurs, et si cela se reproduit, infliger une peine plus lourde.",
"text_replacements": Array[Dictionary]([]),
"translation_key": "Exclure les joueurs, et si cela se reproduit, infliger une peine plus lourde.",
"type": "response"
},
"207": {
"character": "Superviseur",
"character_replacements": Array[Dictionary]([]),
"id": "207",
"next_id": "208",
"parent_id": "206",
"tags": PackedStringArray(),
"text": "J'appelle cela la solution de facilité, mais c'est un bon choix.",
"text_replacements": Array[Dictionary]([]),
"translation_key": "J'appelle cela la solution de facilité, mais c'est un bon choix.",
"type": "dialogue"
},
"208": {
"id": "208",
"mutation": {
"expression": Array[Dictionary]([{
"type": "variable",
"value": "VarPrinci"
}, {
"type": "dot"
}, {
"function": "update_talking",
"type": "function",
"value": Array[Array]([Array[Dictionary]([{
"type": "variable",
"value": "false"
}])])
}])
},
"next_id": "209",
"parent_id": "206",
"type": "mutation"
},
"209": {
"id": "209",
"mutation": {
"expression": Array[Dictionary]([{
"type": "variable",
"value": "Data"
}, {
"type": "dot"
}, {
"function": "set_notes",
"type": "function",
"value": Array[Array]([Array[Dictionary]([{
"type": "number",
"value": 12
}])])
}])
},
"next_id": "210",
"parent_id": "206",
"type": "mutation"
},
"21": {
"id": "21",
"mutation": {
"expression": Array[Dictionary]([{
"type": "variable",
"value": "VarPrinci"
}, {
"type": "dot"
}, {
"function": "update_talking",
"type": "function",
"value": Array[Array]([Array[Dictionary]([{
"type": "variable",
"value": "false"
}])])
}])
},
"next_id": "22",
"parent_id": "19",
"type": "mutation"
},
"210": {
"id": "210",
"mutation": {
"expression": Array[Dictionary]([{
"type": "variable",
"value": "VarPrinci"
}, {
"type": "dot"
}, {
"function": "set_update_count_talk",
"type": "function",
"value": Array[Array]([Array[Dictionary]([{
"type": "number",
"value": 2
}])])
}])
},
"next_id": "211",
"parent_id": "206",
"type": "mutation"
},
"211": {
"id": "211",
"mutation": {
"expression": Array[Dictionary]([{
"type": "variable",
"value": "Data"
}, {
"type": "dot"
}, {
"function": "set_has_talked_supervisor",
"type": "function",
"value": Array[Array]([Array[Dictionary]([{
"type": "variable",
"value": "false"
}])])
}])
},
"next_id": "212",
"parent_id": "206",
"type": "mutation"
},
"212": {
"id": "212",
"is_snippet": false,
"next_id": "end",
"parent_id": "206",
"type": "goto"
},
"213": {
"id": "213",
"next_id": "214",
"next_id_after": "230",
"parent_id": "149",
"tags": PackedStringArray(),
"text": "Je pense que c'est de la faute de quelqu'un d'externe.",
"text_replacements": Array[Dictionary]([]),
"translation_key": "Je pense que c'est de la faute de quelqu'un d'externe.",
"type": "response"
},
"214": {
"character": "Superviseur",
"character_replacements": Array[Dictionary]([]),
"id": "214",
"next_id": "215",
"parent_id": "213",
"tags": PackedStringArray(),
"text": "Tu penses à qui ?",
"text_replacements": Array[Dictionary]([]),
"translation_key": "Tu penses à qui ?",
"type": "dialogue"
},
"215": {
"id": "215",
"next_id": "216",
"next_id_after": "230",
"parent_id": "213",
"responses": PackedStringArray("215", "222"),
"tags": PackedStringArray(),
"text": "Arbitre",
"text_replacements": Array[Dictionary]([]),
"translation_key": "Arbitre",
"type": "response"
},
"216": {
"character": "Superviseur",
"character_replacements": Array[Dictionary]([]),
"id": "216",
"next_id": "217",
"parent_id": "215",
"tags": PackedStringArray(),
"text": "Absolument pas, c'est dommage, tu n'as visiblement rien compris au scénario!",
"text_replacements": Array[Dictionary]([]),
"translation_key": "Absolument pas, c'est dommage, tu n'as visiblement rien compris au scénario!",
"type": "dialogue"
},
"217": {
"id": "217",
"mutation": {
"expression": Array[Dictionary]([{
"type": "variable",
"value": "VarPrinci"
}, {
"type": "dot"
}, {
"function": "update_talking",
"type": "function",
"value": Array[Array]([Array[Dictionary]([{
"type": "variable",
"value": "false"
}])])
}])
},
"next_id": "218",
"parent_id": "215",
"type": "mutation"
},
"218": {
"id": "218",
"mutation": {
"expression": Array[Dictionary]([{
"type": "variable",
"value": "Data"
}, {
"type": "dot"
}, {
"function": "set_notes",
"type": "function",
"value": Array[Array]([Array[Dictionary]([{
"type": "number",
"value": 0
}])])
}])
},
"next_id": "219",
"parent_id": "215",
"type": "mutation"
},
"219": {
"id": "219",
"mutation": {
"expression": Array[Dictionary]([{
"type": "variable",
"value": "VarPrinci"
}, {
"type": "dot"
}, {
"function": "set_update_count_talk",
"type": "function",
"value": Array[Array]([Array[Dictionary]([{
"type": "number",
"value": 2
}])])
}])
},
"next_id": "220",
"parent_id": "215",
"type": "mutation"
},
"22": {
"id": "22",
"mutation": {
"expression": Array[Dictionary]([{
"type": "variable",
"value": "Data"
}, {
"type": "dot"
}, {
"function": "set_notes",
"type": "function",
"value": Array[Array]([Array[Dictionary]([{
"type": "number",
"value": 10
}])])
}])
},
"next_id": "23",
"parent_id": "19",
"type": "mutation"
},
"220": {
"id": "220",
"mutation": {
"expression": Array[Dictionary]([{
"type": "variable",
"value": "Data"
}, {
"type": "dot"
}, {
"function": "set_has_talked_supervisor",
"type": "function",
"value": Array[Array]([Array[Dictionary]([{
"type": "variable",
"value": "false"
}])])
}])
},
"next_id": "221",
"parent_id": "215",
"type": "mutation"
},
"221": {
"id": "221",
"is_snippet": false,
"next_id": "end",
"parent_id": "215",
"type": "goto"
},
"222": {
"id": "222",
"next_id": "223",
"next_id_after": "230",
"parent_id": "213",
"tags": PackedStringArray(),
"text": "Spectateurs",
"text_replacements": Array[Dictionary]([]),
"translation_key": "Spectateurs",
"type": "response"
},
"223": {
"character": "Superviseur",
"character_replacements": Array[Dictionary]([]),
"id": "223",
"next_id": "224",
"parent_id": "222",
"tags": PackedStringArray(),
"text": "Absolument pas, c'est dommage, tu n'as visiblement rien compris au scénario!",
"text_replacements": Array[Dictionary]([]),
"translation_key": "Absolument pas, c'est dommage, tu n'as visiblement rien compris au scénario!",
"type": "dialogue"
},
"224": {
"id": "224",
"mutation": {
"expression": Array[Dictionary]([{
"type": "variable",
"value": "VarPrinci"
}, {
"type": "dot"
}, {
"function": "update_talking",
"type": "function",
"value": Array[Array]([Array[Dictionary]([{
"type": "variable",
"value": "false"
}])])
}])
},
"next_id": "225",
"parent_id": "222",
"type": "mutation"
},
"225": {
"id": "225",
"mutation": {
"expression": Array[Dictionary]([{
"type": "variable",
"value": "Data"
}, {
"type": "dot"
}, {
"function": "set_notes",
"type": "function",
"value": Array[Array]([Array[Dictionary]([{
"type": "number",
"value": 0
}])])
}])
},
"next_id": "226",
"parent_id": "222",
"type": "mutation"
},
"226": {
"id": "226",
"mutation": {
"expression": Array[Dictionary]([{
"type": "variable",
"value": "VarPrinci"
}, {
"type": "dot"
}, {
"function": "set_update_count_talk",
"type": "function",
"value": Array[Array]([Array[Dictionary]([{
"type": "number",
"value": 2
}])])
}])
},
"next_id": "227",
"parent_id": "222",
"type": "mutation"
},
"227": {
"id": "227",
"mutation": {
"expression": Array[Dictionary]([{
"type": "variable",
"value": "Data"
}, {
"type": "dot"
}, {
"function": "set_has_talked_supervisor",
"type": "function",
"value": Array[Array]([Array[Dictionary]([{
"type": "variable",
"value": "false"
}])])
}])
},
"next_id": "228",
"parent_id": "222",
"type": "mutation"
},
"228": {
"id": "228",
"is_snippet": false,
"next_id": "end",
"parent_id": "222",
"type": "goto"
},
"229": {
"id": "229",
"next_id": "230",
"next_id_after": "230",
"parent_id": "149",
"tags": PackedStringArray(),
"text": "Laisse moi le temps de réfléchir encore...",
"text_replacements": Array[Dictionary]([]),
"translation_key": "Laisse moi le temps de réfléchir encore...",
"type": "response"
},
"23": {
"id": "23",
"mutation": {
"expression": Array[Dictionary]([{
"type": "variable",
"value": "VarPrinci"
}, {
"type": "dot"
}, {
"function": "set_update_count_talk",
"type": "function",
"value": Array[Array]([Array[Dictionary]([{
"type": "number",
"value": 5
}])])
}])
},
"next_id": "24",
"parent_id": "19",
"type": "mutation"
},
"230": {
"id": "230",
"mutation": {
"expression": Array[Dictionary]([{
"type": "variable",
"value": "VarPrinci"
}, {
"type": "dot"
}, {
"function": "update_talking",
"type": "function",
"value": Array[Array]([Array[Dictionary]([{
"type": "variable",
"value": "false"
}])])
}])
},
"next_id": "231",
"parent_id": "149",
"type": "mutation"
},
"231": {
"id": "231",
"is_snippet": false,
"next_id": "end",
"parent_id": "149",
"type": "goto"
},
"232": {
"condition": {
"expression": Array[Dictionary]([{
"type": "variable",
"value": "VarPrinci"
}, {
"type": "dot"
}, {
"type": "variable",
"value": "count"
}, {
"type": "comparison",
"value": "=="
}, {
"type": "number",
"value": 2
}])
},
"id": "232",
"next_conditional_id": "282",
"next_id": "233",
"next_id_after": "end!",
"parent_id": "136",
"type": "condition"
},
"233": {
"condition": {
"expression": Array[Dictionary]([{
"type": "variable",
"value": "Data"
}, {
"type": "dot"
}, {
"type": "variable",
"value": "notes"
}, {
"type": "comparison",
"value": "=="
}, {
"type": "number",
"value": 18
}])
},
"id": "233",
"next_conditional_id": "240",
"next_id": "234",
"next_id_after": "end!",
"parent_id": "232",
"type": "condition"
},
"234": {
"character": "Superviseur",
"character_replacements": Array[Dictionary]([]),
"id": "234",
"next_id": "235",
"parent_id": "233",
"tags": PackedStringArray(),
"text": "Tu as très bien compris le scénario, et tu as su quoi faire, félicitation!",
"text_replacements": Array[Dictionary]([]),
"translation_key": "Tu as très bien compris le scénario, et tu as su quoi faire, félicitation!",
"type": "dialogue"
},
"235": {
"id": "235",
"mutation": {
"expression": Array[Dictionary]([{
"type": "variable",
"value": "VarPrinci"
}, {
"type": "dot"
}, {
"function": "do_notes",
"type": "function",
"value": Array[Array]([])
}])
},
"next_id": "236",
"parent_id": "233",
"type": "mutation"
},
"236": {
"id": "236",
"mutation": {
"expression": Array[Dictionary]([{
"type": "variable",
"value": "Data"
}, {
"type": "dot"
}, {
"function": "set_complete_fiche_end",
"type": "function",
"value": Array[Array]([Array[Dictionary]([{
"type": "string",
"value": "stade"
}])])
}])
},
"next_id": "237",
"parent_id": "233",
"type": "mutation"
},
"237": {
"id": "237",
"mutation": {
"expression": Array[Dictionary]([{
"type": "variable",
"value": "VarPrinci"
}, {
"type": "dot"
}, {
"function": "update_talking",
"type": "function",
"value": Array[Array]([Array[Dictionary]([{
"type": "variable",
"value": "false"
}])])
}])
},
"next_id": "238",
"parent_id": "233",
"type": "mutation"
},
"238": {
"id": "238",
"mutation": {
"expression": Array[Dictionary]([{
"type": "variable",
"value": "Data"
}, {
"type": "dot"
}, {
"function": "set_has_talked_supervisor",
"type": "function",
"value": Array[Array]([Array[Dictionary]([{
"type": "variable",
"value": "false"
}])])
}])
},
"next_id": "239",
"parent_id": "233",
"type": "mutation"
},
"239": {
"id": "239",
"mutation": {
"expression": Array[Dictionary]([{
"type": "variable",
"value": "VarPrinci"
}, {
"type": "dot"
}, {
"function": "set_update_count_talk",
"type": "function",
"value": Array[Array]([Array[Dictionary]([{
"type": "number",
"value": 3
}])])
}])
},
"next_id": "end!",
"parent_id": "233",
"type": "mutation"
},
"24": {
"id": "24",
"mutation": {
"expression": Array[Dictionary]([{
"type": "variable",
"value": "Data"
}, {
"type": "dot"
}, {
"function": "set_has_talked_supervisor",
"type": "function",
"value": Array[Array]([Array[Dictionary]([{
"type": "variable",
"value": "false"
}])])
}])
},
"next_id": "25",
"parent_id": "19",
"type": "mutation"
},
"240": {
"condition": {
"expression": Array[Dictionary]([{
"type": "variable",
"value": "Data"
}, {
"type": "dot"
}, {
"type": "variable",
"value": "notes"
}, {
"type": "comparison",
"value": "=="
}, {
"type": "number",
"value": 16
}])
},
"id": "240",
"next_conditional_id": "247",
"next_id": "241",
"next_id_after": "end!",
"parent_id": "232",
"type": "condition"
},
"241": {
"character": "Superviseur",
"character_replacements": Array[Dictionary]([]),
"id": "241",
"next_id": "242",
"parent_id": "240",
"tags": PackedStringArray(),
"text": "Tu as bien compris le scénario, mais les multiples coups de Paul font que les excuses ne suffiront sûrement pas.",
"text_replacements": Array[Dictionary]([]),
"translation_key": "Tu as bien compris le scénario, mais les multiples coups de Paul font que les excuses ne suffiront sûrement pas.",
"type": "dialogue"
},
"242": {
"id": "242",
"mutation": {
"expression": Array[Dictionary]([{
"type": "variable",
"value": "VarPrinci"
}, {
"type": "dot"
}, {
"function": "do_notes",
"type": "function",
"value": Array[Array]([])
}])
},
"next_id": "243",
"parent_id": "240",
"type": "mutation"
},
"243": {
"id": "243",
"mutation": {
"expression": Array[Dictionary]([{
"type": "variable",
"value": "Data"
}, {
"type": "dot"
}, {
"function": "set_complete_fiche_end",
"type": "function",
"value": Array[Array]([Array[Dictionary]([{
"type": "string",
"value": "stade"
}])])
}])
},
"next_id": "244",
"parent_id": "240",
"type": "mutation"
},
"244": {
"id": "244",
"mutation": {
"expression": Array[Dictionary]([{
"type": "variable",
"value": "VarPrinci"
}, {
"type": "dot"
}, {
"function": "update_talking",
"type": "function",
"value": Array[Array]([Array[Dictionary]([{
"type": "variable",
"value": "false"
}])])
}])
},
"next_id": "245",
"parent_id": "240",
"type": "mutation"
},
"245": {
"id": "245",
"mutation": {
"expression": Array[Dictionary]([{
"type": "variable",
"value": "Data"
}, {
"type": "dot"
}, {
"function": "set_has_talked_supervisor",
"type": "function",
"value": Array[Array]([Array[Dictionary]([{
"type": "variable",
"value": "false"
}])])
}])
},
"next_id": "246",
"parent_id": "240",
"type": "mutation"
},
"246": {
"id": "246",
"mutation": {
"expression": Array[Dictionary]([{
"type": "variable",
"value": "VarPrinci"
}, {
"type": "dot"
}, {
"function": "set_update_count_talk",
"type": "function",
"value": Array[Array]([Array[Dictionary]([{
"type": "number",
"value": 3
}])])
}])
},
"next_id": "end!",
"parent_id": "240",
"type": "mutation"
},
"247": {
"condition": {
"expression": Array[Dictionary]([{
"type": "variable",
"value": "Data"
}, {
"type": "dot"
}, {
"type": "variable",
"value": "notes"
}, {
"type": "comparison",
"value": "=="
}, {
"type": "number",
"value": 14
}])
},
"id": "247",
"next_conditional_id": "254",
"next_id": "248",
"next_id_after": "end!",
"parent_id": "232",
"type": "condition"
},
"248": {
"character": "Superviseur",
"character_replacements": Array[Dictionary]([]),
"id": "248",
"next_id": "249",
"parent_id": "247",
"tags": PackedStringArray(),
"text": "Tu as bien compris le scénario, mais la résolution n'était pas excellente dans ce cas, certes présenter ces excuses est une bonne solution, mais si le match reprend, la violence physique va continuer!",
"text_replacements": Array[Dictionary]([]),
"translation_key": "Tu as bien compris le scénario, mais la résolution n'était pas excellente dans ce cas, certes présenter ces excuses est une bonne solution, mais si le match reprend, la violence physique va continuer!",
"type": "dialogue"
},
"249": {
"id": "249",
"mutation": {
"expression": Array[Dictionary]([{
"type": "variable",
"value": "VarPrinci"
}, {
"type": "dot"
}, {
"function": "do_notes",
"type": "function",
"value": Array[Array]([])
}])
},
"next_id": "250",
"parent_id": "247",
"type": "mutation"
},
"25": {
"id": "25",
"is_snippet": false,
"next_id": "end",
"parent_id": "19",
"type": "goto"
},
"250": {
"id": "250",
"mutation": {
"expression": Array[Dictionary]([{
"type": "variable",
"value": "Data"
}, {
"type": "dot"
}, {
"function": "set_complete_fiche_end",
"type": "function",
"value": Array[Array]([Array[Dictionary]([{
"type": "string",
"value": "stade"
}])])
}])
},
"next_id": "251",
"parent_id": "247",
"type": "mutation"
},
"251": {
"id": "251",
"mutation": {
"expression": Array[Dictionary]([{
"type": "variable",
"value": "VarPrinci"
}, {
"type": "dot"
}, {
"function": "update_talking",
"type": "function",
"value": Array[Array]([Array[Dictionary]([{
"type": "variable",
"value": "false"
}])])
}])
},
"next_id": "252",
"parent_id": "247",
"type": "mutation"
},
"252": {
"id": "252",
"mutation": {
"expression": Array[Dictionary]([{
"type": "variable",
"value": "Data"
}, {
"type": "dot"
}, {
"function": "set_has_talked_supervisor",
"type": "function",
"value": Array[Array]([Array[Dictionary]([{
"type": "variable",
"value": "false"
}])])
}])
},
"next_id": "253",
"parent_id": "247",
"type": "mutation"
},
"253": {
"id": "253",
"mutation": {
"expression": Array[Dictionary]([{
"type": "variable",
"value": "VarPrinci"
}, {
"type": "dot"
}, {
"function": "set_update_count_talk",
"type": "function",
"value": Array[Array]([Array[Dictionary]([{
"type": "number",
"value": 3
}])])
}])
},
"next_id": "end!",
"parent_id": "247",
"type": "mutation"
},
"254": {
"condition": {
"expression": Array[Dictionary]([{
"type": "variable",
"value": "Data"
}, {
"type": "dot"
}, {
"type": "variable",
"value": "notes"
}, {
"type": "comparison",
"value": "=="
}, {
"type": "number",
"value": 13
}])
},
"id": "254",
"next_conditional_id": "261",
"next_id": "255",
"next_id_after": "end!",
"parent_id": "232",
"type": "condition"
},
"255": {
"character": "Superviseur",
"character_replacements": Array[Dictionary]([]),
"id": "255",
"next_id": "256",
"parent_id": "254",
"tags": PackedStringArray(),
"text": "Tu as bien compris le scénario, mais la résolution n'était pas excellente dans ce cas, certes présenter ces excuses est une bonne solution, mais si le match reprend, la violence physique va continuer!",
"text_replacements": Array[Dictionary]([]),
"translation_key": "Tu as bien compris le scénario, mais la résolution n'était pas excellente dans ce cas, certes présenter ces excuses est une bonne solution, mais si le match reprend, la violence physique va continuer!",
"type": "dialogue"
},
"256": {
"id": "256",
"mutation": {
"expression": Array[Dictionary]([{
"type": "variable",
"value": "VarPrinci"
}, {
"type": "dot"
}, {
"function": "do_notes",
"type": "function",
"value": Array[Array]([])
}])
},
"next_id": "257",
"parent_id": "254",
"type": "mutation"
},
"257": {
"id": "257",
"mutation": {
"expression": Array[Dictionary]([{
"type": "variable",
"value": "Data"
}, {
"type": "dot"
}, {
"function": "set_complete_fiche_end",
"type": "function",
"value": Array[Array]([Array[Dictionary]([{
"type": "string",
"value": "stade"
}])])
}])
},
"next_id": "258",
"parent_id": "254",
"type": "mutation"
},
"258": {
"id": "258",
"mutation": {
"expression": Array[Dictionary]([{
"type": "variable",
"value": "VarPrinci"
}, {
"type": "dot"
}, {
"function": "update_talking",
"type": "function",
"value": Array[Array]([Array[Dictionary]([{
"type": "variable",
"value": "false"
}])])
}])
},
"next_id": "259",
"parent_id": "254",
"type": "mutation"
},
"259": {
"id": "259",
"mutation": {
"expression": Array[Dictionary]([{
"type": "variable",
"value": "Data"
}, {
"type": "dot"
}, {
"function": "set_has_talked_supervisor",
"type": "function",
"value": Array[Array]([Array[Dictionary]([{
"type": "variable",
"value": "false"
}])])
}])
},
"next_id": "260",
"parent_id": "254",
"type": "mutation"
},
"26": {
"id": "26",
"next_id": "27",
"next_id_after": "103",
"parent_id": "17",
"tags": PackedStringArray(),
"text": "Je pense que Jack devrait présenter des excuses à Moussa.",
"text_replacements": Array[Dictionary]([]),
"translation_key": "Je pense que Jack devrait présenter des excuses à Moussa.",
"type": "response"
},
"260": {
"id": "260",
"mutation": {
"expression": Array[Dictionary]([{
"type": "variable",
"value": "VarPrinci"
}, {
"type": "dot"
}, {
"function": "set_update_count_talk",
"type": "function",
"value": Array[Array]([Array[Dictionary]([{
"type": "number",
"value": 3
}])])
}])
},
"next_id": "end!",
"parent_id": "254",
"type": "mutation"
},
"261": {
"condition": {
"expression": Array[Dictionary]([{
"type": "variable",
"value": "Data"
}, {
"type": "dot"
}, {
"type": "variable",
"value": "notes"
}, {
"type": "comparison",
"value": "=="
}, {
"type": "number",
"value": 12
}])
},
"id": "261",
"next_conditional_id": "268",
"next_id": "262",
"next_id_after": "end!",
"parent_id": "232",
"type": "condition"
},
"262": {
"character": "Superviseur",
"character_replacements": Array[Dictionary]([]),
"id": "262",
"next_id": "263",
"parent_id": "261",
"tags": PackedStringArray(),
"text": "Tu as bien compris le scénario, mais la résolution n'était pas excellente dans ce cas, certes exclure les deux joueurs est une solution de facilité, mais vu la violence de Paul il faut que Yair agisse.",
"text_replacements": Array[Dictionary]([]),
"translation_key": "Tu as bien compris le scénario, mais la résolution n'était pas excellente dans ce cas, certes exclure les deux joueurs est une solution de facilité, mais vu la violence de Paul il faut que Yair agisse.",
"type": "dialogue"
},
"263": {
"id": "263",
"mutation": {
"expression": Array[Dictionary]([{
"type": "variable",
"value": "VarPrinci"
}, {
"type": "dot"
}, {
"function": "do_notes",
"type": "function",
"value": Array[Array]([])
}])
},
"next_id": "264",
"parent_id": "261",
"type": "mutation"
},
"264": {
"id": "264",
"mutation": {
"expression": Array[Dictionary]([{
"type": "variable",
"value": "Data"
}, {
"type": "dot"
}, {
"function": "set_complete_fiche_end",
"type": "function",
"value": Array[Array]([Array[Dictionary]([{
"type": "string",
"value": "stade"
}])])
}])
},
"next_id": "265",
"parent_id": "261",
"type": "mutation"
},
"265": {
"id": "265",
"mutation": {
"expression": Array[Dictionary]([{
"type": "variable",
"value": "VarPrinci"
}, {
"type": "dot"
}, {
"function": "update_talking",
"type": "function",
"value": Array[Array]([Array[Dictionary]([{
"type": "variable",
"value": "false"
}])])
}])
},
"next_id": "266",
"parent_id": "261",
"type": "mutation"
},
"266": {
"id": "266",
"mutation": {
"expression": Array[Dictionary]([{
"type": "variable",
"value": "Data"
}, {
"type": "dot"
}, {
"function": "set_has_talked_supervisor",
"type": "function",
"value": Array[Array]([Array[Dictionary]([{
"type": "variable",
"value": "false"
}])])
}])
},
"next_id": "267",
"parent_id": "261",
"type": "mutation"
},
"267": {
"id": "267",
"mutation": {
"expression": Array[Dictionary]([{
"type": "variable",
"value": "VarPrinci"
}, {
"type": "dot"
}, {
"function": "set_update_count_talk",
"type": "function",
"value": Array[Array]([Array[Dictionary]([{
"type": "number",
"value": 3
}])])
}])
},
"next_id": "end!",
"parent_id": "261",
"type": "mutation"
},
"268": {
"condition": {
"expression": Array[Dictionary]([{
"type": "variable",
"value": "Data"
}, {
"type": "dot"
}, {
"type": "variable",
"value": "notes"
}, {
"type": "comparison",
"value": "=="
}, {
"type": "number",
"value": 5
}])
},
"id": "268",
"next_conditional_id": "275",
"next_id": "269",
"next_id_after": "end!",
"parent_id": "232",
"type": "condition"
},
"269": {
"character": "Superviseur",
"character_replacements": Array[Dictionary]([]),
"id": "269",
"next_id": "270",
"parent_id": "268",
"tags": PackedStringArray(),
"text": "Ta réponse n'a aucune cohérence, c'est dommage, dire que c'est la faute de Yair pour son premier coup INVOLONTAIRE est une très mauvaise décision.",
"text_replacements": Array[Dictionary]([]),
"translation_key": "Ta réponse n'a aucune cohérence, c'est dommage, dire que c'est la faute de Yair pour son premier coup INVOLONTAIRE est une très mauvaise décision.",
"type": "dialogue"
},
"27": {
"character": "Superviseur",
"character_replacements": Array[Dictionary]([]),
"id": "27",
"next_id": "28",
"parent_id": "26",
"tags": PackedStringArray(),
"text": "Alors, va lui parler. Je compte sur toi !",
"text_replacements": Array[Dictionary]([]),
"translation_key": "Alors, va lui parler. Je compte sur toi !",
"type": "dialogue"
},
"270": {
"id": "270",
"mutation": {
"expression": Array[Dictionary]([{
"type": "variable",
"value": "VarPrinci"
}, {
"type": "dot"
}, {
"function": "do_notes",
"type": "function",
"value": Array[Array]([])
}])
},
"next_id": "271",
"parent_id": "268",
"type": "mutation"
},
"271": {
"id": "271",
"mutation": {
"expression": Array[Dictionary]([{
"type": "variable",
"value": "Data"
}, {
"type": "dot"
}, {
"function": "set_complete_fiche_end",
"type": "function",
"value": Array[Array]([Array[Dictionary]([{
"type": "string",
"value": "stade"
}])])
}])
},
"next_id": "272",
"parent_id": "268",
"type": "mutation"
},
"272": {
"id": "272",
"mutation": {
"expression": Array[Dictionary]([{
"type": "variable",
"value": "VarPrinci"
}, {
"type": "dot"
}, {
"function": "update_talking",
"type": "function",
"value": Array[Array]([Array[Dictionary]([{
"type": "variable",
"value": "false"
}])])
}])
},
"next_id": "273",
"parent_id": "268",
"type": "mutation"
},
"273": {
"id": "273",
"mutation": {
"expression": Array[Dictionary]([{
"type": "variable",
"value": "Data"
}, {
"type": "dot"
}, {
"function": "set_has_talked_supervisor",
"type": "function",
"value": Array[Array]([Array[Dictionary]([{
"type": "variable",
"value": "false"
}])])
}])
},
"next_id": "274",
"parent_id": "268",
"type": "mutation"
},
"274": {
"id": "274",
"mutation": {
"expression": Array[Dictionary]([{
"type": "variable",
"value": "VarPrinci"
}, {
"type": "dot"
}, {
"function": "set_update_count_talk",
"type": "function",
"value": Array[Array]([Array[Dictionary]([{
"type": "number",
"value": 3
}])])
}])
},
"next_id": "end!",
"parent_id": "268",
"type": "mutation"
},
"275": {
"condition": {
"expression": Array[Dictionary]([{
"type": "variable",
"value": "Data"
}, {
"type": "dot"
}, {
"type": "variable",
"value": "notes"
}, {
"type": "comparison",
"value": "=="
}, {
"type": "number",
"value": 0
}])
},
"id": "275",
"next_conditional_id": "end!",
"next_id": "276",
"next_id_after": "end!",
"parent_id": "232",
"type": "condition"
},
"276": {
"character": "Superviseur",
"character_replacements": Array[Dictionary]([]),
"id": "276",
"next_id": "277",
"parent_id": "275",
"tags": PackedStringArray(),
"text": "Très déçu, tâche de te concentrer dans la suite. Voici ta note.",
"text_replacements": Array[Dictionary]([]),
"translation_key": "Très déçu, tâche de te concentrer dans la suite. Voici ta note.",
"type": "dialogue"
},
"277": {
"id": "277",
"mutation": {
"expression": Array[Dictionary]([{
"type": "variable",
"value": "VarPrinci"
}, {
"type": "dot"
}, {
"function": "do_notes",
"type": "function",
"value": Array[Array]([])
}])
},
"next_id": "278",
"parent_id": "275",
"type": "mutation"
},
"278": {
"id": "278",
"mutation": {
"expression": Array[Dictionary]([{
"type": "variable",
"value": "Data"
}, {
"type": "dot"
}, {
"function": "set_complete_fiche_end",
"type": "function",
"value": Array[Array]([Array[Dictionary]([{
"type": "string",
"value": "stade"
}])])
}])
},
"next_id": "279",
"parent_id": "275",
"type": "mutation"
},
"279": {
"id": "279",
"mutation": {
"expression": Array[Dictionary]([{
"type": "variable",
"value": "VarPrinci"
}, {
"type": "dot"
}, {
"function": "update_talking",
"type": "function",
"value": Array[Array]([Array[Dictionary]([{
"type": "variable",
"value": "false"
}])])
}])
},
"next_id": "280",
"parent_id": "275",
"type": "mutation"
},
"28": {
"id": "28",
"mutation": {
"expression": Array[Dictionary]([{
"type": "variable",
"value": "VarPrinci"
}, {
"type": "dot"
}, {
"function": "update_talking",
"type": "function",
"value": Array[Array]([Array[Dictionary]([{
"type": "variable",
"value": "false"
}])])
}])
},
"next_id": "29",
"parent_id": "26",
"type": "mutation"
},
"280": {
"id": "280",
"mutation": {
"expression": Array[Dictionary]([{
"type": "variable",
"value": "Data"
}, {
"type": "dot"
}, {
"function": "set_has_talked_supervisor",
"type": "function",
"value": Array[Array]([Array[Dictionary]([{
"type": "variable",
"value": "false"
}])])
}])
},
"next_id": "281",
"parent_id": "275",
"type": "mutation"
},
"281": {
"id": "281",
"mutation": {
"expression": Array[Dictionary]([{
"type": "variable",
"value": "VarPrinci"
}, {
"type": "dot"
}, {
"function": "set_update_count_talk",
"type": "function",
"value": Array[Array]([Array[Dictionary]([{
"type": "number",
"value": 3
}])])
}])
},
"next_id": "end!",
"parent_id": "275",
"type": "mutation"
},
"282": {
"id": "282",
"next_conditional_id": "end!",
"next_id": "283",
"next_id_after": "end!",
"parent_id": "136",
"type": "condition"
},
"283": {
"id": "283",
"mutation": {
"expression": Array[Dictionary]([{
"type": "variable",
"value": "VarPrinci"
}, {
"type": "dot"
}, {
"function": "update_talking",
"type": "function",
"value": Array[Array]([Array[Dictionary]([{
"type": "variable",
"value": "false"
}])])
}])
},
"next_id": "end!",
"parent_id": "282",
"type": "mutation"
},
"29": {
"id": "29",
"mutation": {
"expression": Array[Dictionary]([{
"type": "variable",
"value": "Data"
}, {
"type": "dot"
}, {
"function": "set_notes",
"type": "function",
"value": Array[Array]([Array[Dictionary]([{
"type": "number",
"value": 10
}])])
}])
},
"next_id": "30",
"parent_id": "26",
"type": "mutation"
},
"3": {
"id": "3",
"mutation": {
"expression": Array[Dictionary]([{
"type": "variable",
"value": "VarPrinci"
}, {
"type": "dot"
}, {
"function": "update_talking",
"type": "function",
"value": Array[Array]([Array[Dictionary]([{
"type": "variable",
"value": "true"
}])])
}])
},
"next_id": "4",
"parent_id": "2",
"type": "mutation"
},
"30": {
"id": "30",
"mutation": {
"expression": Array[Dictionary]([{
"type": "variable",
"value": "VarPrinci"
}, {
"type": "dot"
}, {
"function": "set_update_count_talk",
"type": "function",
"value": Array[Array]([Array[Dictionary]([{
"type": "number",
"value": 5
}])])
}])
},
"next_id": "31",
"parent_id": "26",
"type": "mutation"
},
"31": {
"id": "31",
"mutation": {
"expression": Array[Dictionary]([{
"type": "variable",
"value": "Data"
}, {
"type": "dot"
}, {
"function": "set_has_talked_supervisor",
"type": "function",
"value": Array[Array]([Array[Dictionary]([{
"type": "variable",
"value": "false"
}])])
}])
},
"next_id": "32",
"parent_id": "26",
"type": "mutation"
},
"32": {
"id": "32",
"is_snippet": false,
"next_id": "end",
"parent_id": "26",
"type": "goto"
},
"33": {
"id": "33",
"next_id": "34",
"next_id_after": "103",
"parent_id": "17",
"tags": PackedStringArray(),
"text": "Je pense que je devrais adopter une approche plus directe(se battre).",
"text_replacements": Array[Dictionary]([]),
"translation_key": "Je pense que je devrais adopter une approche plus directe(se battre).",
"type": "response"
},
"34": {
"character": "Superviseur",
"character_replacements": Array[Dictionary]([]),
"id": "34",
"next_id": "35",
"parent_id": "33",
"tags": PackedStringArray(),
"text": "Prépare-toi à affronter la situation de front. Fonce !",
"text_replacements": Array[Dictionary]([]),
"translation_key": "Prépare-toi à affronter la situation de front. Fonce !",
"type": "dialogue"
},
"35": {
"id": "35",
"mutation": {
"expression": Array[Dictionary]([{
"type": "variable",
"value": "VarPrinci"
}, {
"type": "dot"
}, {
"function": "update_talking",
"type": "function",
"value": Array[Array]([Array[Dictionary]([{
"type": "variable",
"value": "false"
}])])
}])
},
"next_id": "36",
"parent_id": "33",
"type": "mutation"
},
"36": {
"id": "36",
"mutation": {
"expression": Array[Dictionary]([{
"type": "variable",
"value": "Data"
}, {
"type": "dot"
}, {
"function": "set_has_talked_supervisor",
"type": "function",
"value": Array[Array]([Array[Dictionary]([{
"type": "variable",
"value": "false"
}])])
}])
},
"next_id": "37",
"parent_id": "33",
"type": "mutation"
},
"37": {
"id": "37",
"mutation": {
"expression": Array[Dictionary]([{
"type": "variable",
"value": "VarPrinci"
}, {
"type": "dot"
}, {
"function": "start_fighting",
"type": "function",
"value": Array[Array]([Array[Dictionary]([{
"type": "string",
"value": "A"
}])])
}])
},
"next_id": "38",
"parent_id": "33",
"type": "mutation"
},
"38": {
"id": "38",
"mutation": {
"expression": Array[Dictionary]([{
"type": "variable",
"value": "VarPrinci"
}, {
"type": "dot"
}, {
"function": "set_update_count_talk",
"type": "function",
"value": Array[Array]([Array[Dictionary]([{
"type": "number",
"value": 3
}])])
}])
},
"next_id": "39",
"parent_id": "33",
"type": "mutation"
},
"39": {
"id": "39",
"is_snippet": false,
"next_id": "end",
"parent_id": "33",
"type": "goto"
},
"4": {
"id": "4",
"mutation": {
"expression": Array[Dictionary]([{
"type": "variable",
"value": "Data"
}, {
"type": "dot"
}, {
"function": "set_end_dialog",
"type": "function",
"value": Array[Array]([Array[Dictionary]([{
"type": "variable",
"value": "true"
}])])
}])
},
"next_id": "5",
"parent_id": "2",
"type": "mutation"
},
"40": {
"id": "40",
"next_id": "41",
"next_id_after": "103",
"parent_id": "15",
"tags": PackedStringArray(),
"text": "Je pense que c'est de la faute de Moussa.",
"text_replacements": Array[Dictionary]([]),
"translation_key": "Je pense que c'est de la faute de Moussa.",
"type": "response"
},
"41": {
"character": "Superviseur",
"character_replacements": Array[Dictionary]([]),
"id": "41",
"next_id": "42",
"parent_id": "40",
"tags": PackedStringArray(),
"text": "Mettre toute la responsabilité sur une seule personne, c'est audacieux. Comment envisages-tu résoudre le conflit ?",
"text_replacements": Array[Dictionary]([]),
"translation_key": "Mettre toute la responsabilité sur une seule personne, c'est audacieux. Comment envisages-tu résoudre le conflit ?",
"type": "dialogue"
},
"42": {
"id": "42",
"next_id": "43",
"next_id_after": "103",
"parent_id": "40",
"responses": PackedStringArray("42", "49", "56"),
"tags": PackedStringArray(),
"text": "Je pense que je devrais expliquer à Moussa où est son erreur.",
"text_replacements": Array[Dictionary]([]),
"translation_key": "Je pense que je devrais expliquer à Moussa où est son erreur.",
"type": "response"
},
"43": {
"character": "Superviseur",
"character_replacements": Array[Dictionary]([]),
"id": "43",
"next_id": "44",
"parent_id": "42",
"tags": PackedStringArray(),
"text": "Dans ce cas, vas lui parler. Je compte sur toi !",
"text_replacements": Array[Dictionary]([]),
"translation_key": "Dans ce cas, vas lui parler. Je compte sur toi !",
"type": "dialogue"
},
"44": {
"id": "44",
"mutation": {
"expression": Array[Dictionary]([{
"type": "variable",
"value": "VarPrinci"
}, {
"type": "dot"
}, {
"function": "update_talking",
"type": "function",
"value": Array[Array]([Array[Dictionary]([{
"type": "variable",
"value": "false"
}])])
}])
},
"next_id": "45",
"parent_id": "42",
"type": "mutation"
},
"45": {
"id": "45",
"mutation": {
"expression": Array[Dictionary]([{
"type": "variable",
"value": "Data"
}, {
"type": "dot"
}, {
"function": "set_notes",
"type": "function",
"value": Array[Array]([Array[Dictionary]([{
"type": "number",
"value": 10
}])])
}])
},
"next_id": "46",
"parent_id": "42",
"type": "mutation"
},
"46": {
"id": "46",
"mutation": {
"expression": Array[Dictionary]([{
"type": "variable",
"value": "VarPrinci"
}, {
"type": "dot"
}, {
"function": "set_update_count_talk",
"type": "function",
"value": Array[Array]([Array[Dictionary]([{
"type": "number",
"value": 6
}])])
}])
},
"next_id": "47",
"parent_id": "42",
"type": "mutation"
},
"47": {
"id": "47",
"mutation": {
"expression": Array[Dictionary]([{
"type": "variable",
"value": "Data"
}, {
"type": "dot"
}, {
"function": "set_has_talked_supervisor",
"type": "function",
"value": Array[Array]([Array[Dictionary]([{
"type": "variable",
"value": "false"
}])])
}])
},
"next_id": "48",
"parent_id": "42",
"type": "mutation"
},
"48": {
"id": "48",
"is_snippet": false,
"next_id": "end",
"parent_id": "42",
"type": "goto"
},
"49": {
"id": "49",
"next_id": "50",
"next_id_after": "103",
"parent_id": "40",
"tags": PackedStringArray(),
"text": "Je pense que je devrais encourager Moussa à présenter des excuses à Jack.",
"text_replacements": Array[Dictionary]([]),
"translation_key": "Je pense que je devrais encourager Moussa à présenter des excuses à Jack.",
"type": "response"
},
"5": {
"condition": {
"expression": Array[Dictionary]([{
"type": "variable",
"value": "VarPrinci"
}, {
"type": "dot"
}, {
"type": "variable",
"value": "count"
}, {
"type": "comparison",
"value": "=="
}, {
"type": "number",
"value": 0
}, {
"type": "colon"
}])
},
"id": "5",
"next_conditional_id": "15",
"next_id": "6",
"next_id_after": "end!",
"parent_id": "2",
"type": "condition"
},
"50": {
"character": "Superviseur",
"character_replacements": Array[Dictionary]([]),
"id": "50",
"next_id": "51",
"parent_id": "49",
"tags": PackedStringArray(),
"text": "Alors, va lui parler. Je compte sur toi !",
"text_replacements": Array[Dictionary]([]),
"translation_key": "Alors, va lui parler. Je compte sur toi !",
"type": "dialogue"
},
"51": {
"id": "51",
"mutation": {
"expression": Array[Dictionary]([{
"type": "variable",
"value": "VarPrinci"
}, {
"type": "dot"
}, {
"function": "update_talking",
"type": "function",
"value": Array[Array]([Array[Dictionary]([{
"type": "variable",
"value": "false"
}])])
}])
},
"next_id": "52",
"parent_id": "49",
"type": "mutation"
},
"52": {
"id": "52",
"mutation": {
"expression": Array[Dictionary]([{
"type": "variable",
"value": "Data"
}, {
"type": "dot"
}, {
"function": "set_notes",
"type": "function",
"value": Array[Array]([Array[Dictionary]([{
"type": "number",
"value": 10
}])])
}])
},
"next_id": "53",
"parent_id": "49",
"type": "mutation"
},
"53": {
"id": "53",
"mutation": {
"expression": Array[Dictionary]([{
"type": "variable",
"value": "VarPrinci"
}, {
"type": "dot"
}, {
"function": "set_update_count_talk",
"type": "function",
"value": Array[Array]([Array[Dictionary]([{
"type": "number",
"value": 6
}])])
}])
},
"next_id": "54",
"parent_id": "49",
"type": "mutation"
},
"54": {
"id": "54",
"mutation": {
"expression": Array[Dictionary]([{
"type": "variable",
"value": "Data"
}, {
"type": "dot"
}, {
"function": "set_has_talked_supervisor",
"type": "function",
"value": Array[Array]([Array[Dictionary]([{
"type": "variable",
"value": "false"
}])])
}])
},
"next_id": "55",
"parent_id": "49",
"type": "mutation"
},
"55": {
"id": "55",
"is_snippet": false,
"next_id": "end",
"parent_id": "49",
"type": "goto"
},
"56": {
"id": "56",
"next_id": "57",
"next_id_after": "103",
"parent_id": "40",
"tags": PackedStringArray(),
"text": "Je pense que je devrais adopter une approche plus directe(se battre).",
"text_replacements": Array[Dictionary]([]),
"translation_key": "Je pense que je devrais adopter une approche plus directe(se battre).",
"type": "response"
},
"57": {
"character": "Superviseur",
"character_replacements": Array[Dictionary]([]),
"id": "57",
"next_id": "58",
"parent_id": "56",
"tags": PackedStringArray(),
"text": "Prépare-toi à affronter la situation de front. Fonce !",
"text_replacements": Array[Dictionary]([]),
"translation_key": "Prépare-toi à affronter la situation de front. Fonce !",
"type": "dialogue"
},
"58": {
"id": "58",
"mutation": {
"expression": Array[Dictionary]([{
"type": "variable",
"value": "VarPrinci"
}, {
"type": "dot"
}, {
"function": "update_talking",
"type": "function",
"value": Array[Array]([Array[Dictionary]([{
"type": "variable",
"value": "false"
}])])
}])
},
"next_id": "59",
"parent_id": "56",
"type": "mutation"
},
"59": {
"id": "59",
"mutation": {
"expression": Array[Dictionary]([{
"type": "variable",
"value": "Data"
}, {
"type": "dot"
}, {
"function": "set_has_talked_supervisor",
"type": "function",
"value": Array[Array]([Array[Dictionary]([{
"type": "variable",
"value": "false"
}])])
}])
},
"next_id": "60",
"parent_id": "56",
"type": "mutation"
},
"6": {
"character": "Superviseur",
"character_replacements": Array[Dictionary]([]),
"id": "6",
"next_id": "7",
"parent_id": "5",
"tags": PackedStringArray(),
"text": "Bienvenue, je compte sur toi pour analyser la situation et prendre le meilleur choix possible. Ton année se joue sur cela.",
"text_replacements": Array[Dictionary]([]),
"translation_key": "Bienvenue, je compte sur toi pour analyser la situation et prendre le meilleur choix possible. Ton année se joue sur cela.",
"type": "dialogue"
},
"60": {
"id": "60",
"mutation": {
"expression": Array[Dictionary]([{
"type": "variable",
"value": "VarPrinci"
}, {
"type": "dot"
}, {
"function": "start_fighting",
"type": "function",
"value": Array[Array]([Array[Dictionary]([{
"type": "string",
"value": "B"
}])])
}])
},
"next_id": "61",
"parent_id": "56",
"type": "mutation"
},
"61": {
"id": "61",
"mutation": {
"expression": Array[Dictionary]([{
"type": "variable",
"value": "VarPrinci"
}, {
"type": "dot"
}, {
"function": "set_update_count_talk",
"type": "function",
"value": Array[Array]([Array[Dictionary]([{
"type": "number",
"value": 3
}])])
}])
},
"next_id": "62",
"parent_id": "56",
"type": "mutation"
},
"62": {
"id": "62",
"is_snippet": false,
"next_id": "end",
"parent_id": "56",
"type": "goto"
},
"63": {
"id": "63",
"next_id": "64",
"next_id_after": "103",
"parent_id": "15",
"tags": PackedStringArray(),
"text": "Je pense que c'est de la faute des deux.",
"text_replacements": Array[Dictionary]([]),
"translation_key": "Je pense que c'est de la faute des deux.",
"type": "response"
},
"64": {
"character": "Superviseur",
"character_replacements": Array[Dictionary]([]),
"id": "64",
"next_id": "65",
"parent_id": "63",
"tags": PackedStringArray(),
"text": "Tu as clairement identifié le problème du scénario, très intéressant. Que devrais-tu faire à présent ?",
"text_replacements": Array[Dictionary]([]),
"translation_key": "Tu as clairement identifié le problème du scénario, très intéressant. Que devrais-tu faire à présent ?",
"type": "dialogue"
},
"65": {
"id": "65",
"next_id": "66",
"next_id_after": "103",
"parent_id": "63",
"responses": PackedStringArray("65", "72", "79"),
"tags": PackedStringArray(),
"text": "Dire à l'arbitre de relancer le match directement.",
"text_replacements": Array[Dictionary]([]),
"translation_key": "Dire à l'arbitre de relancer le match directement.",
"type": "response"
},
"66": {
"character": "Superviseur",
"character_replacements": Array[Dictionary]([]),
"id": "66",
"next_id": "67",
"parent_id": "65",
"tags": PackedStringArray(),
"text": "Sans régler le conflit ? C'est une réponse peu adaptée, c'est regrettable...",
"text_replacements": Array[Dictionary]([]),
"translation_key": "Sans régler le conflit ? C'est une réponse peu adaptée, c'est regrettable...",
"type": "dialogue"
},
"67": {
"id": "67",
"mutation": {
"expression": Array[Dictionary]([{
"type": "variable",
"value": "VarPrinci"
}, {
"type": "dot"
}, {
"function": "update_talking",
"type": "function",
"value": Array[Array]([Array[Dictionary]([{
"type": "variable",
"value": "false"
}])])
}])
},
"next_id": "68",
"parent_id": "65",
"type": "mutation"
},
"68": {
"id": "68",
"mutation": {
"expression": Array[Dictionary]([{
"type": "variable",
"value": "Data"
}, {
"type": "dot"
}, {
"function": "set_notes",
"type": "function",
"value": Array[Array]([Array[Dictionary]([{
"type": "number",
"value": 0
}])])
}])
},
"next_id": "69",
"parent_id": "65",
"type": "mutation"
},
"69": {
"id": "69",
"mutation": {
"expression": Array[Dictionary]([{
"type": "variable",
"value": "VarPrinci"
}, {
"type": "dot"
}, {
"function": "set_update_count_talk",
"type": "function",
"value": Array[Array]([Array[Dictionary]([{
"type": "number",
"value": 2
}])])
}])
},
"next_id": "70",
"parent_id": "65",
"type": "mutation"
},
"7": {
"id": "7",
"next_id": "8",
"next_id_after": "11",
"parent_id": "5",
"responses": PackedStringArray("7"),
"tags": PackedStringArray(),
"text": "Aucun problème, je vais faire tout mon possible.",
"text_replacements": Array[Dictionary]([]),
"translation_key": "Aucun problème, je vais faire tout mon possible.",
"type": "response"
},
"70": {
"id": "70",
"mutation": {
"expression": Array[Dictionary]([{
"type": "variable",
"value": "Data"
}, {
"type": "dot"
}, {
"function": "set_has_talked_supervisor",
"type": "function",
"value": Array[Array]([Array[Dictionary]([{
"type": "variable",
"value": "false"
}])])
}])
},
"next_id": "71",
"parent_id": "65",
"type": "mutation"
},
"71": {
"id": "71",
"is_snippet": false,
"next_id": "end",
"parent_id": "65",
"type": "goto"
},
"72": {
"id": "72",
"next_id": "73",
"next_id_after": "103",
"parent_id": "63",
"tags": PackedStringArray(),
"text": "Confronter les deux joueurs face à face et apaiser les tensions.",
"text_replacements": Array[Dictionary]([]),
"translation_key": "Confronter les deux joueurs face à face et apaiser les tensions.",
"type": "response"
},
"73": {
"character": "Superviseur",
"character_replacements": Array[Dictionary]([]),
"id": "73",
"next_id": "74",
"parent_id": "72",
"tags": PackedStringArray(),
"text": "Je suis d'accord, mais je ne pense pas que c'était la meilleure solution. La pression d'un match peut parfois conduire à des paroles regrettables.",
"text_replacements": Array[Dictionary]([]),
"translation_key": "Je suis d'accord, mais je ne pense pas que c'était la meilleure solution. La pression d'un match peut parfois conduire à des paroles regrettables.",
"type": "dialogue"
},
"74": {
"id": "74",
"mutation": {
"expression": Array[Dictionary]([{
"type": "variable",
"value": "VarPrinci"
}, {
"type": "dot"
}, {
"function": "update_talking",
"type": "function",
"value": Array[Array]([Array[Dictionary]([{
"type": "variable",
"value": "false"
}])])
}])
},
"next_id": "75",
"parent_id": "72",
"type": "mutation"
},
"75": {
"id": "75",
"mutation": {
"expression": Array[Dictionary]([{
"type": "variable",
"value": "Data"
}, {
"type": "dot"
}, {
"function": "set_notes",
"type": "function",
"value": Array[Array]([Array[Dictionary]([{
"type": "number",
"value": 16
}])])
}])
},
"next_id": "76",
"parent_id": "72",
"type": "mutation"
},
"76": {
"id": "76",
"mutation": {
"expression": Array[Dictionary]([{
"type": "variable",
"value": "VarPrinci"
}, {
"type": "dot"
}, {
"function": "set_update_count_talk",
"type": "function",
"value": Array[Array]([Array[Dictionary]([{
"type": "number",
"value": 2
}])])
}])
},
"next_id": "77",
"parent_id": "72",
"type": "mutation"
},
"77": {
"id": "77",
"mutation": {
"expression": Array[Dictionary]([{
"type": "variable",
"value": "Data"
}, {
"type": "dot"
}, {
"function": "set_has_talked_supervisor",
"type": "function",
"value": Array[Array]([Array[Dictionary]([{
"type": "variable",
"value": "false"
}])])
}])
},
"next_id": "78",
"parent_id": "72",
"type": "mutation"
},
"78": {
"id": "78",
"is_snippet": false,
"next_id": "end",
"parent_id": "72",
"type": "goto"
},
"79": {
"id": "79",
"next_id": "80",
"next_id_after": "103",
"parent_id": "63",
"tags": PackedStringArray(),
"text": "Exclure les joueurs, et si cela se reproduit, infliger une peine plus lourde.",
"text_replacements": Array[Dictionary]([]),
"translation_key": "Exclure les joueurs, et si cela se reproduit, infliger une peine plus lourde.",
"type": "response"
},
"8": {
"id": "8",
"mutation": {
"expression": Array[Dictionary]([{
"type": "variable",
"value": "VarPrinci"
}, {
"type": "dot"
}, {
"function": "do_fiche",
"type": "function",
"value": Array[Array]([])
}])
},
"next_id": "9",
"parent_id": "7",
"type": "mutation"
},
"80": {
"character": "Superviseur",
"character_replacements": Array[Dictionary]([]),
"id": "80",
"next_id": "81",
"parent_id": "79",
"tags": PackedStringArray(),
"text": "L'objectif est de reprendre le match, et je pense que c'est la meilleure solution. Bravo !",
"text_replacements": Array[Dictionary]([]),
"translation_key": "L'objectif est de reprendre le match, et je pense que c'est la meilleure solution. Bravo !",
"type": "dialogue"
},
"81": {
"id": "81",
"mutation": {
"expression": Array[Dictionary]([{
"type": "variable",
"value": "VarPrinci"
}, {
"type": "dot"
}, {
"function": "update_talking",
"type": "function",
"value": Array[Array]([Array[Dictionary]([{
"type": "variable",
"value": "false"
}])])
}])
},
"next_id": "82",
"parent_id": "79",
"type": "mutation"
},
"82": {
"id": "82",
"mutation": {
"expression": Array[Dictionary]([{
"type": "variable",
"value": "Data"
}, {
"type": "dot"
}, {
"function": "set_notes",
"type": "function",
"value": Array[Array]([Array[Dictionary]([{
"type": "number",
"value": 18
}])])
}])
},
"next_id": "83",
"parent_id": "79",
"type": "mutation"
},
"83": {
"id": "83",
"mutation": {
"expression": Array[Dictionary]([{
"type": "variable",
"value": "VarPrinci"
}, {
"type": "dot"
}, {
"function": "set_update_count_talk",
"type": "function",
"value": Array[Array]([Array[Dictionary]([{
"type": "number",
"value": 2
}])])
}])
},
"next_id": "84",
"parent_id": "79",
"type": "mutation"
},
"84": {
"id": "84",
"mutation": {
"expression": Array[Dictionary]([{
"type": "variable",
"value": "Data"
}, {
"type": "dot"
}, {
"function": "set_has_talked_supervisor",
"type": "function",
"value": Array[Array]([Array[Dictionary]([{
"type": "variable",
"value": "false"
}])])
}])
},
"next_id": "85",
"parent_id": "79",
"type": "mutation"
},
"85": {
"id": "85",
"is_snippet": false,
"next_id": "end",
"parent_id": "79",
"type": "goto"
},
"86": {
"id": "86",
"next_id": "87",
"next_id_after": "103",
"parent_id": "15",
"tags": PackedStringArray(),
"text": "Je pense que c'est de la faute de quelqu'un d'externe.",
"text_replacements": Array[Dictionary]([]),
"translation_key": "Je pense que c'est de la faute de quelqu'un d'externe.",
"type": "response"
},
"87": {
"character": "Superviseur",
"character_replacements": Array[Dictionary]([]),
"id": "87",
"next_id": "88",
"parent_id": "86",
"tags": PackedStringArray(),
"text": "Tu penses à qui ?",
"text_replacements": Array[Dictionary]([]),
"translation_key": "Tu penses à qui ?",
"type": "dialogue"
},
"88": {
"id": "88",
"next_id": "89",
"next_id_after": "103",
"parent_id": "86",
"responses": PackedStringArray("88", "95"),
"tags": PackedStringArray(),
"text": "Arbitre",
"text_replacements": Array[Dictionary]([]),
"translation_key": "Arbitre",
"type": "response"
},
"89": {
"character": "Superviseur",
"character_replacements": Array[Dictionary]([]),
"id": "89",
"next_id": "90",
"parent_id": "88",
"tags": PackedStringArray(),
"text": "Absolument pas, c'est dommage, tu n'as visiblement rien compris au scénario!",
"text_replacements": Array[Dictionary]([]),
"translation_key": "Absolument pas, c'est dommage, tu n'as visiblement rien compris au scénario!",
"type": "dialogue"
},
"9": {
"character": "Superviseur",
"character_replacements": Array[Dictionary]([]),
"id": "9",
"next_id": "10",
"parent_id": "7",
"tags": PackedStringArray(),
"text": "Bien, voici ce que j'ai comme informations sur les personnes concernées. Met ces fiches dans ton sac.",
"text_replacements": Array[Dictionary]([]),
"translation_key": "Bien, voici ce que j'ai comme informations sur les personnes concernées. Met ces fiches dans ton sac.",
"type": "dialogue"
},
"90": {
"id": "90",
"mutation": {
"expression": Array[Dictionary]([{
"type": "variable",
"value": "VarPrinci"
}, {
"type": "dot"
}, {
"function": "update_talking",
"type": "function",
"value": Array[Array]([Array[Dictionary]([{
"type": "variable",
"value": "false"
}])])
}])
},
"next_id": "91",
"parent_id": "88",
"type": "mutation"
},
"91": {
"id": "91",
"mutation": {
"expression": Array[Dictionary]([{
"type": "variable",
"value": "Data"
}, {
"type": "dot"
}, {
"function": "set_notes",
"type": "function",
"value": Array[Array]([Array[Dictionary]([{
"type": "number",
"value": 0
}])])
}])
},
"next_id": "92",
"parent_id": "88",
"type": "mutation"
},
"92": {
"id": "92",
"mutation": {
"expression": Array[Dictionary]([{
"type": "variable",
"value": "VarPrinci"
}, {
"type": "dot"
}, {
"function": "set_update_count_talk",
"type": "function",
"value": Array[Array]([Array[Dictionary]([{
"type": "number",
"value": 2
}])])
}])
},
"next_id": "93",
"parent_id": "88",
"type": "mutation"
},
"93": {
"id": "93",
"mutation": {
"expression": Array[Dictionary]([{
"type": "variable",
"value": "Data"
}, {
"type": "dot"
}, {
"function": "set_has_talked_supervisor",
"type": "function",
"value": Array[Array]([Array[Dictionary]([{
"type": "variable",
"value": "false"
}])])
}])
},
"next_id": "94",
"parent_id": "88",
"type": "mutation"
},
"94": {
"id": "94",
"is_snippet": false,
"next_id": "end",
"parent_id": "88",
"type": "goto"
},
"95": {
"id": "95",
"next_id": "96",
"next_id_after": "103",
"parent_id": "86",
"tags": PackedStringArray(),
"text": "Spectateurs",
"text_replacements": Array[Dictionary]([]),
"translation_key": "Spectateurs",
"type": "response"
},
"96": {
"character": "Superviseur",
"character_replacements": Array[Dictionary]([]),
"id": "96",
"next_id": "97",
"parent_id": "95",
"tags": PackedStringArray(),
"text": "Absolument pas, c'est dommage, tu n'as visiblement rien compris au scénario!",
"text_replacements": Array[Dictionary]([]),
"translation_key": "Absolument pas, c'est dommage, tu n'as visiblement rien compris au scénario!",
"type": "dialogue"
},
"97": {
"id": "97",
"mutation": {
"expression": Array[Dictionary]([{
"type": "variable",
"value": "VarPrinci"
}, {
"type": "dot"
}, {
"function": "update_talking",
"type": "function",
"value": Array[Array]([Array[Dictionary]([{
"type": "variable",
"value": "false"
}])])
}])
},
"next_id": "98",
"parent_id": "95",
"type": "mutation"
},
"98": {
"id": "98",
"mutation": {
"expression": Array[Dictionary]([{
"type": "variable",
"value": "Data"
}, {
"type": "dot"
}, {
"function": "set_notes",
"type": "function",
"value": Array[Array]([Array[Dictionary]([{
"type": "number",
"value": 0
}])])
}])
},
"next_id": "99",
"parent_id": "95",
"type": "mutation"
},
"99": {
"id": "99",
"mutation": {
"expression": Array[Dictionary]([{
"type": "variable",
"value": "VarPrinci"
}, {
"type": "dot"
}, {
"function": "set_update_count_talk",
"type": "function",
"value": Array[Array]([Array[Dictionary]([{
"type": "number",
"value": 2
}])])
}])
},
"next_id": "100",
"parent_id": "95",
"type": "mutation"
}
}
metadata/dialogue_manager_version = "2.29.2"
