[gd_resource type="Resource" script_class="DialogueResource" load_steps=2 format=3]

[ext_resource type="Script" path="res://addons/dialogue_manager/dialogue_resource.gd" id="1_lqesk"]

[resource]
script = ExtResource("1_lqesk")
using_states = PackedStringArray()
titles = {
"this_is_a_node_title": "3"
}
character_names = PackedStringArray("Nathan")
first_title = "3"
lines = {
"1": {
"id": "1",
"next_id": "3",
"text": "this_is_a_node_title",
"type": "title"
},
"10": {
"id": "10",
"next_id": "end",
"next_id_after": "11",
"tags": PackedStringArray(),
"text": "End the conversation",
"text_replacements": Array[Dictionary]([]),
"translation_key": "End the conversation",
"type": "response"
},
"11": {
"character": "Nathan",
"character_replacements": Array[Dictionary]([]),
"id": "11",
"next_id": "13",
"tags": PackedStringArray(),
"text": "For more information see the online documentation.",
"text_replacements": Array[Dictionary]([]),
"translation_key": "For more information see the online documentation.",
"type": "dialogue"
},
"13": {
"id": "13",
"is_snippet": false,
"next_id": "end",
"type": "goto"
},
"3": {
"character": "Nathan",
"character_replacements": Array[Dictionary]([]),
"id": "3",
"next_id": "4",
"tags": PackedStringArray(),
"text": "[[Hi|Hello|Howdy]], this is some dialogue.",
"text_replacements": Array[Dictionary]([]),
"translation_key": "[[Hi|Hello|Howdy]], this is some dialogue.",
"type": "dialogue"
},
"4": {
"character": "Nathan",
"character_replacements": Array[Dictionary]([]),
"id": "4",
"next_id": "5",
"tags": PackedStringArray(),
"text": "Here are some choices.",
"text_replacements": Array[Dictionary]([]),
"translation_key": "Here are some choices.",
"type": "dialogue"
},
"5": {
"id": "5",
"next_id": "6",
"next_id_after": "11",
"responses": PackedStringArray("5", "7", "9", "10"),
"tags": PackedStringArray(),
"text": "First one",
"text_replacements": Array[Dictionary]([]),
"translation_key": "First one",
"type": "response"
},
"6": {
"character": "Nathan",
"character_replacements": Array[Dictionary]([]),
"id": "6",
"next_id": "11",
"parent_id": "5",
"tags": PackedStringArray(),
"text": "You picked the first one.",
"text_replacements": Array[Dictionary]([]),
"translation_key": "You picked the first one.",
"type": "dialogue"
},
"7": {
"id": "7",
"next_id": "8",
"next_id_after": "11",
"tags": PackedStringArray(),
"text": "Second one",
"text_replacements": Array[Dictionary]([]),
"translation_key": "Second one",
"type": "response"
},
"8": {
"character": "Nathan",
"character_replacements": Array[Dictionary]([]),
"id": "8",
"next_id": "11",
"parent_id": "7",
"tags": PackedStringArray(),
"text": "You picked the second one.",
"text_replacements": Array[Dictionary]([]),
"translation_key": "You picked the second one.",
"type": "dialogue"
},
"9": {
"id": "9",
"next_id": "3",
"next_id_after": "11",
"tags": PackedStringArray(),
"text": "Start again",
"text_replacements": Array[Dictionary]([]),
"translation_key": "Start again",
"type": "response"
}
}
metadata/dialogue_manager_version = "2.29.2"
